# This file uses centimeters as units for non-parametric coordinates.

mtllib alarme.mtl
g default
v -1.725053 0.091279 1.860158
v 2.235255 0.091279 1.860158
v -0.992685 0.255854 1.860158
v 1.502887 0.255854 1.860158
v -1.725053 3.951457 1.860158
v -0.992685 2.153655 1.860158
v 1.502887 2.153655 1.860158
v 2.235255 3.951457 1.860158
v -1.725053 3.951457 -0.233881
v 2.235255 3.951457 -0.233881
v -1.725053 0.091279 -0.233881
v 2.235255 0.091279 -0.233881
v -0.992685 0.255854 1.564576
v 1.502887 0.255854 1.564576
v 1.502887 2.153655 1.564576
v -0.992685 2.153655 1.564576
vt 0.416667 0.020833
vt 0.604167 0.041667
vt 0.458333 0.083333
vt 0.541667 0.083333
vt 0.395833 0.208333
vt 0.458333 0.166667
vt 0.541667 0.166667
vt 0.583333 0.229167
vt 0.427083 0.562500
vt 0.562500 0.552083
vt 0.437500 0.697917
vt 0.572917 0.687500
vt 0.416667 1.000000
vt 0.583333 1.000000
vt 0.875000 0.041667
vt 0.875000 0.208333
vt 0.125000 0.041667
vt 0.125000 0.208333
vt 0.458333 0.083333
vt 0.541667 0.083333
vt 0.541667 0.166667
vt 0.458333 0.166667
vn -0.000000 -0.000000 1.000000
vn 0.000000 -0.000000 1.000000
vn 0.000000 -0.000000 1.000000
vn -0.000000 -0.000000 1.000000
vn -0.000000 0.000000 1.000000
vn -0.000000 0.000000 1.000000
vn 0.000000 0.000000 1.000000
vn 0.000000 0.000000 1.000000
vn 0.000000 0.000000 1.000000
vn 0.000000 0.000000 1.000000
vn 0.000000 0.000000 1.000000
vn 0.000000 0.000000 1.000000
vn 0.000000 1.000000 0.000000
vn 0.697996 0.716101 0.000000
vn 0.697996 0.716101 0.000000
vn 0.000000 1.000000 0.000000
vn 0.000000 0.000000 -1.000000
vn 0.000000 0.000000 -1.000000
vn 0.421476 -0.432409 -0.797108
vn -0.421476 -0.432409 -0.797108
vn 0.697996 -0.716101 0.000000
vn -0.697996 -0.716101 0.000000
vn -1.000000 0.000000 0.000000
vn -1.000000 0.000000 0.000000
vn 0.000000 1.000000 0.000000
vn 0.000000 1.000000 0.000000
vn 0.000000 1.000000 0.000000
vn 0.000000 1.000000 0.000000
vn -1.000000 0.000000 0.000000
vn -1.000000 0.000000 0.000000
vn -1.000000 0.000000 0.000000
vn -1.000000 0.000000 0.000000
vn 0.000000 -1.000000 0.000000
vn 0.000000 -1.000000 0.000000
vn 0.000000 -1.000000 0.000000
vn 0.000000 -1.000000 0.000000
vn 1.000000 0.000000 0.000000
vn 1.000000 0.000000 0.000000
vn 1.000000 0.000000 0.000000
vn 1.000000 0.000000 0.000000
s 1
g pCube1
usemtl initialShadingGroup
f 1/1/1 2/2/2 4/4/3 3/3/4
f 1/1/1 3/3/4 6/6/5 5/5/6
s off
f 13/19/7 14/20/8 15/21/9 16/22/10
s 1
f 4/4/3 2/2/2 8/8/11 7/7/12
f 6/6/5 7/7/12 8/8/11 5/5/6
s 2
f 5/5/13 8/8/14 10/10/15 9/9/16
f 9/9/17 10/10/18 12/12/19 11/11/20
f 11/11/20 12/12/19 2/14/21 1/13/22
f 2/2/21 12/15/19 10/16/15 8/8/14
f 11/17/20 1/1/22 5/5/23 9/18/24
s off
f 3/3/25 4/4/26 14/20/27 13/19/28
f 4/4/29 7/7/30 15/21/31 14/20/32
f 7/7/33 6/6/34 16/22/35 15/21/36
f 6/6/37 3/3/38 13/19/39 16/22/40
