# This file uses centimeters as units for non-parametric coordinates.

mtllib ChairLP.mtl
g default
v 26.376387 47.149223 -50.356786
v 26.376387 56.432831 -50.356786
v 26.039125 57.149223 -98.640128
v 26.039125 47.149223 -99.106759
v 26.912171 56.432831 -92.121051
v 26.912171 47.149223 -90.785058
v 26.912171 56.967369 -58.887944
v 26.912171 47.149223 -58.887944
v 17.033356 57.683762 -58.887944
v 17.033356 56.432831 -49.859071
v 17.033356 47.149223 -49.859071
v 17.033357 47.149223 -58.887944
v 17.033357 47.149223 -90.785058
v 17.033356 47.149223 -99.859071
v 17.033356 57.149223 -99.859071
v 17.033356 57.149223 -91.201549
v 17.033356 120.237289 -104.249822
v 17.033356 120.289658 -95.582664
v 25.486373 119.374405 -96.701163
v 25.417002 119.350235 -103.031209
v 20.510978 47.149223 -53.087689
v 20.510978 47.149223 -56.547030
v 23.434550 47.149223 -56.547030
v 23.434550 47.149223 -53.087689
v 20.605768 47.149223 -93.682101
v 20.605768 47.149223 -96.962028
v 23.339760 47.149223 -96.962028
v 23.339760 47.149223 -93.682101
v 20.794705 -0.045307 -52.806134
v 20.794705 -0.045307 -54.959537
v 23.150824 -0.045307 -54.959537
v 23.150824 -0.045307 -52.806134
v 20.871097 -0.045307 -94.718413
v 20.871097 -0.045307 -96.742248
v 23.074431 -0.045307 -96.742248
v 23.074431 -0.045307 -94.718413
v 17.033356 57.897575 -74.836501
v 26.912171 57.181183 -74.836501
v 26.912171 47.897575 -74.836501
v 17.033357 47.897575 -74.836501
v 17.033356 92.766922 -92.322789
v 26.108495 92.761017 -93.441289
v 26.039125 92.520264 -100.174203
v 17.033356 92.497971 -101.392816
v 17.033357 76.775848 -91.631358
v 26.108495 76.769951 -92.749858
v 26.039125 76.529198 -99.482772
v 17.033357 76.506897 -100.701385
v 17.033357 108.062851 -102.800307
v 26.039125 108.085144 -101.581696
v 26.108495 108.325897 -94.848783
v 17.033357 108.331802 -93.730283
v 17.033356 47.149223 -54.373507
v 20.120761 47.149223 -54.373507
v 20.740791 -0.045307 -53.688252
v 23.204737 -0.045307 -53.688252
v 23.824767 47.149223 -54.373507
v 26.912171 47.149223 -54.373507
v 26.912171 56.700104 -54.373507
v 17.033356 57.416489 -54.373507
v 21.972763 57.149223 -91.201549
v 21.972763 57.897575 -74.836501
v 21.972763 57.683762 -58.887944
v 21.972763 57.416489 -54.373507
v 21.972763 56.432831 -49.859071
v 21.972763 47.149223 -49.859071
v 21.972763 47.149223 -52.680846
v 21.972763 -0.045307 -52.562276
v 21.972763 -0.045307 -53.688252
v 21.972763 -0.045307 -54.814229
v 21.972763 47.149223 -57.063645
v 21.972763 47.149223 -58.887944
v 21.972763 47.897575 -74.836501
v 21.972763 47.149223 -90.785058
v 21.972763 47.149223 -93.119981
v 21.972763 -0.045307 -94.705983
v 21.972763 -0.045307 -97.034553
v 21.972763 47.149223 -97.524148
v 21.972763 47.149223 -99.859071
v 21.972763 57.149223 -99.859071
v 21.972763 76.506897 -100.701385
v 21.972763 92.497971 -101.392816
v 21.972763 108.062851 -102.800307
v 21.972763 120.237289 -104.249822
v 21.972763 120.289658 -95.582664
v 21.972763 108.331802 -93.730283
v 21.972763 92.766922 -92.322789
v 21.972763 76.775848 -91.631358
v 17.033356 121.722748 -100.164159
v 21.972763 121.722748 -100.164159
v 26.290048 120.813400 -100.164159
v 26.912171 108.197327 -98.265296
v 26.912171 92.632446 -96.857802
v 26.912171 76.641373 -96.166371
v 26.912171 57.149223 -95.322064
v 26.912171 47.149223 -95.322064
v 23.808317 47.149223 -95.322064
v 23.240310 -0.045307 -95.870269
v 21.972763 -0.045307 -95.870269
v 20.705219 -0.045307 -95.870269
v 20.137212 47.149223 -95.322064
v 17.033356 47.149223 -95.322064
v 17.033356 52.149223 -100.634541
v 21.972763 52.149223 -100.983151
v 26.862946 52.149223 -99.440886
v 27.735992 52.149223 -95.322064
v 27.735992 51.791023 -90.993302
v 27.735992 52.539383 -74.836501
v 27.735992 52.058296 -58.887944
v 27.735992 51.924660 -54.373507
v 27.200209 51.791023 -49.738233
v 21.972763 51.791023 -49.240518
v 17.033356 51.791023 -49.240518
v 20.738434 22.944496 -94.086225
v 21.972763 22.944496 -93.662623
v 23.207097 22.944496 -94.086225
v 23.630180 22.944496 -95.185014
v 23.207097 22.944496 -96.353772
v 21.972763 22.944496 -96.707404
v 20.738434 22.944496 -96.353772
v 20.315350 22.944496 -95.185014
v 20.652843 22.944496 -52.676476
v 20.300493 22.944496 -53.688252
v 20.652843 22.944496 -55.089192
v 21.972763 22.944496 -55.216643
v 23.292686 22.944496 -55.089192
v 23.645033 22.944496 -53.688252
v 23.292686 22.944496 -52.676476
v 21.972763 22.944496 -52.159862
v 2.123821 57.683762 -58.887944
v 2.123821 57.149223 -91.201547
v 2.123821 120.289658 -95.582662
v 2.123821 120.237289 -104.249822
v 2.123821 57.149216 -99.859071
v 2.123821 47.149223 -99.859071
v 2.123821 47.149223 -90.785058
v 2.123821 47.149223 -58.887944
v 2.123821 47.149223 -49.859071
v 2.123821 56.432831 -49.859071
v 2.123821 57.110397 -74.836501
v 2.123821 47.897575 -74.836501
v 2.123821 92.766922 -92.322789
v 2.123821 92.497971 -101.392816
v 2.123821 76.775848 -91.631358
v 2.123821 76.506897 -100.701383
v 2.123821 108.062851 -102.800309
v 2.123821 108.331802 -93.730283
v 2.123821 47.149223 -54.373509
v 2.123821 57.416489 -54.373509
v 2.123821 121.722748 -100.164157
v 2.123821 47.149223 -95.322064
v 2.123821 52.149223 -100.254937
v 2.123821 51.791023 -49.240519
v -22.128747 47.149216 -50.356790
v -22.128747 56.432831 -50.356790
v -21.791485 57.149223 -98.640128
v -21.791485 47.149216 -99.106759
v -22.664531 56.432831 -92.121049
v -22.664531 47.149216 -90.785057
v -22.664531 56.967369 -58.887944
v -22.664531 47.149216 -58.887944
v -12.785714 57.683762 -58.887944
v -12.785714 56.432831 -49.859071
v -12.785714 47.149216 -49.859071
v -12.785715 47.149216 -58.887944
v -12.785715 47.149216 -90.785057
v -12.785714 47.149216 -99.859069
v -12.785714 57.149223 -99.859069
v -12.785714 57.149223 -91.201547
v -12.785714 120.237289 -104.249822
v -12.785714 120.289642 -95.582662
v -21.238733 119.374405 -96.701163
v -21.169363 119.350235 -103.031209
v -16.263338 47.149216 -53.087691
v -16.263338 47.149216 -56.547030
v -19.186910 47.149216 -56.547030
v -19.186910 47.149216 -53.087691
v -16.358128 47.149216 -93.682099
v -16.358128 47.149216 -96.962028
v -19.092121 47.149216 -96.962028
v -19.092121 47.149216 -93.682099
v -16.547064 -0.045307 -52.806134
v -16.547064 -0.045307 -54.959537
v -18.903184 -0.045307 -54.959537
v -18.903184 -0.045307 -52.806134
v -16.623457 -0.045307 -94.718411
v -16.623457 -0.045307 -96.742248
v -18.826791 -0.045307 -96.742248
v -18.826791 -0.045307 -94.718411
v -12.785714 57.897575 -74.836501
v -22.664531 57.181183 -74.836501
v -22.664531 47.897575 -74.836501
v -12.785715 47.897575 -74.836501
v -12.785714 92.766922 -92.322789
v -21.860856 92.761017 -93.441289
v -21.791485 92.520264 -100.174203
v -12.785714 92.497971 -101.392816
v -12.785715 76.775848 -91.631358
v -21.860856 76.769943 -92.749856
v -21.791485 76.529190 -99.482770
v -12.785715 76.506897 -100.701383
v -12.785715 108.062851 -102.800309
v -21.791485 108.085144 -101.581695
v -21.860856 108.325897 -94.848783
v -12.785715 108.331802 -93.730283
v -12.785714 47.149216 -54.373509
v -15.873120 47.149216 -54.373509
v -16.493150 -0.045307 -53.688252
v -18.957098 -0.045307 -53.688252
v -19.577128 47.149216 -54.373509
v -22.664531 47.149216 -54.373509
v -22.664531 56.700104 -54.373509
v -12.785714 57.416489 -54.373509
v -17.725124 57.149223 -91.201547
v -17.725124 57.897575 -74.836501
v -17.725124 57.683762 -58.887944
v -17.725124 57.416489 -54.373509
v -17.725124 56.432831 -49.859071
v -17.725124 47.149216 -49.859071
v -17.725124 47.149216 -52.680848
v -17.725124 -0.045307 -52.562276
v -17.725124 -0.045307 -53.688252
v -17.725124 -0.045307 -54.814229
v -17.725124 47.149216 -57.063645
v -17.725124 47.149216 -58.887944
v -17.725124 47.897575 -74.836501
v -17.725124 47.149216 -90.785057
v -17.725124 47.149216 -93.119981
v -17.725124 -0.045307 -94.705983
v -17.725124 -0.045307 -97.034553
v -17.725124 47.149216 -97.524146
v -17.725124 47.149216 -99.859069
v -17.725124 57.149223 -99.859069
v -17.725124 76.506897 -100.701383
v -17.725124 92.497971 -101.392816
v -17.725124 108.062851 -102.800309
v -17.725124 120.237289 -104.249822
v -17.725124 120.289642 -95.582662
v -17.725124 108.331802 -93.730283
v -17.725124 92.766922 -92.322789
v -17.725124 76.775848 -91.631358
v -12.785714 121.722748 -100.164157
v -17.725124 121.722748 -100.164157
v -22.042409 120.813400 -100.164157
v -22.664531 108.197327 -98.265296
v -22.664531 92.632446 -96.857802
v -22.664531 76.641365 -96.166371
v -22.664531 57.149223 -95.322062
v -22.664531 47.149216 -95.322062
v -19.560677 47.149216 -95.322062
v -18.992670 -0.045307 -95.870269
v -17.725124 -0.045307 -95.870269
v -16.457578 -0.045307 -95.870269
v -15.889571 47.149216 -95.322062
v -12.785714 47.149216 -95.322062
v -12.785714 52.149223 -100.634541
v -17.725124 52.149223 -100.983149
v -22.615307 52.149223 -99.440885
v -23.488353 52.149223 -95.322062
v -23.488353 51.791023 -90.993302
v -23.488353 52.539383 -74.836501
v -23.488353 52.058296 -58.887944
v -23.488353 51.924660 -54.373509
v -22.952569 51.791023 -49.738234
v -17.725124 51.791023 -49.240521
v -12.785714 51.791023 -49.240521
v -16.490793 22.944494 -94.086225
v -17.725124 22.944494 -93.662621
v -18.959457 22.944494 -94.086225
v -19.382541 22.944494 -95.185014
v -18.959457 22.944494 -96.353772
v -17.725124 22.944494 -96.707404
v -16.490793 22.944494 -96.353772
v -16.067710 22.944494 -95.185014
v -16.405202 22.944494 -52.676478
v -16.052853 22.944494 -53.688252
v -16.405202 22.944494 -55.089192
v -17.725124 22.944494 -55.216643
v -19.045046 22.944494 -55.089192
v -19.397394 22.944494 -53.688252
v -19.045046 22.944494 -52.676478
v -17.725124 22.944494 -52.159863
vt 0.053041 0.740908
vt 0.084114 0.742511
vt 0.082988 0.770150
vt 0.056477 0.769163
vt 0.057509 0.689212
vt 0.085829 0.689139
vt 0.085169 0.715416
vt 0.059189 0.712941
vt 0.399333 0.000191
vt 0.399937 0.029130
vt 0.371001 0.028861
vt 0.375543 0.000000
vt 0.014008 0.782091
vt 0.020522 0.782091
vt 0.020522 0.789218
vt 0.015419 0.788907
vt 0.002398 0.716905
vt 0.001137 0.692543
vt 0.029658 0.690846
vt 0.030919 0.718436
vt 0.303508 0.418270
vt 0.300167 0.393240
vt 0.325570 0.389393
vt 0.324708 0.409669
vt 0.048274 0.789629
vt 0.048357 0.782296
vt 0.055092 0.782372
vt 0.053329 0.788726
vt 0.031508 0.429173
vt 0.030936 0.453553
vt 0.001596 0.452429
vt 0.001811 0.429713
vt 0.085017 0.477648
vt 0.085960 0.572199
vt 0.057432 0.572364
vt 0.055884 0.472527
vt 0.548674 0.715996
vt 0.548674 0.687419
vt 0.641044 0.687419
vt 0.641044 0.715995
vt 0.028287 0.478472
vt 0.030347 0.572243
vt 0.002947 0.572133
vt 0.000784 0.478945
vt 0.298005 0.300112
vt 0.298742 0.211015
vt 0.323372 0.211705
vt 0.322141 0.301132
vt 0.342095 0.303321
vt 0.343683 0.212605
vt 0.363730 0.213592
vt 0.361990 0.305777
vt 0.374206 0.262854
vt 0.398788 0.263221
vt 0.398772 0.353822
vt 0.374199 0.353230
vt 0.404067 0.658844
vt 0.430185 0.658843
vt 0.430185 0.676705
vt 0.422746 0.678963
vt 0.445749 0.687420
vt 0.456303 0.687420
vt 0.456303 0.715996
vt 0.442760 0.695877
vt 0.430185 0.698135
vt 0.430185 0.715997
vt 0.406947 0.712897
vt 0.422746 0.695877
vt 0.404067 0.687420
vt 0.420392 0.687420
vt 0.667292 0.676800
vt 0.667292 0.658843
vt 0.693541 0.658843
vt 0.676780 0.679510
vt 0.680032 0.687419
vt 0.693540 0.687419
vt 0.689188 0.710944
vt 0.676780 0.695328
vt 0.667292 0.715995
vt 0.667292 0.698038
vt 0.654552 0.687419
vt 0.657804 0.695328
vt 0.726608 0.562523
vt 0.720419 0.562531
vt 0.722711 0.429531
vt 0.727828 0.429605
vt 0.761101 0.429172
vt 0.765200 0.562187
vt 0.757527 0.562485
vt 0.754234 0.429389
vt 0.746872 0.429532
vt 0.749167 0.562534
vt 0.742977 0.562525
vt 0.741755 0.429605
vt 0.734793 0.562519
vt 0.734791 0.429635
vt 0.940884 0.562443
vt 0.948073 0.562693
vt 0.943992 0.702678
vt 0.934125 0.702425
vt 0.983962 0.562443
vt 0.991388 0.562139
vt 0.999236 0.702055
vt 0.990692 0.702427
vt 0.980826 0.702679
vt 0.976773 0.562693
vt 0.970961 0.702893
vt 0.962409 0.702965
vt 0.962423 0.562953
vt 0.969966 0.562870
vt 0.270166 0.300022
vt 0.185205 0.300496
vt 0.184658 0.210890
vt 0.270380 0.210800
vt 0.427429 0.263246
vt 0.513815 0.263293
vt 0.513776 0.353836
vt 0.427399 0.353816
vt 0.667293 0.572585
vt 0.693542 0.572585
vt 0.548674 0.658843
vt 0.548674 0.572584
vt 0.641044 0.572585
vt 0.641044 0.658843
vt 0.113017 0.743379
vt 0.200087 0.744088
vt 0.200088 0.771540
vt 0.112477 0.770922
vt 0.114009 0.689547
vt 0.200091 0.689950
vt 0.200088 0.716778
vt 0.113584 0.716153
vt 0.114232 0.572042
vt 0.200130 0.571875
vt 0.200097 0.663761
vt 0.114252 0.663615
vt 0.086057 0.663477
vt 0.057679 0.663588
vt 0.029119 0.664586
vt 0.000000 0.665527
vt 0.184275 0.118334
vt 0.270778 0.118306
vt 0.299533 0.118427
vt 0.324547 0.118771
vt 0.345104 0.119202
vt 0.365176 0.119741
vt 0.374397 0.170303
vt 0.398948 0.170504
vt 0.427534 0.170532
vt 0.513853 0.170585
vt 0.184052 0.004074
vt 0.270841 0.004056
vt 0.299639 0.004049
vt 0.328967 0.000000
vt 0.347343 0.005341
vt 0.367327 0.006562
vt 0.374385 0.058139
vt 0.398964 0.058223
vt 0.427619 0.058379
vt 0.513890 0.058416
vt 0.513749 0.424845
vt 0.427408 0.424836
vt 0.398824 0.424841
vt 0.377890 0.418936
vt 0.338441 0.378131
vt 0.357630 0.373205
vt 0.297832 0.367374
vt 0.319131 0.366171
vt 0.430184 0.572585
vt 0.456302 0.572585
vt 0.456303 0.658843
vt 0.442760 0.678963
vt 0.712059 0.562480
vt 0.715348 0.429389
vt 0.027036 0.782091
vt 0.027877 0.788906
vt 0.113820 0.477461
vt 0.015419 0.775275
vt 0.020522 0.774963
vt 0.027877 0.775275
vt 0.704386 0.562186
vt 0.708482 0.429172
vt 0.657804 0.679510
vt 0.954879 0.562870
vt 0.953858 0.702892
vt 0.048440 0.774963
vt 0.053473 0.775980
vt 0.925581 0.702054
vt 0.933459 0.562140
vt 0.427813 0.000110
vt 0.427804 0.029232
vt 0.273664 0.420879
vt 0.272137 0.395521
vt 0.270789 0.368333
vt 0.186008 0.397526
vt 0.185753 0.369701
vt 0.041622 0.782220
vt 0.041622 0.788594
vt 0.041765 0.775848
vt 0.513894 0.029395
vt 0.060287 0.453808
vt 0.061155 0.433763
vt 0.962422 0.429878
vt 0.956047 0.429856
vt 0.968797 0.429856
vt 0.975526 0.429620
vt 0.980656 0.429402
vt 0.987247 0.429172
vt 0.937597 0.429172
vt 0.944188 0.429402
vt 0.949318 0.429620
vt 0.725964 0.702494
vt 0.718188 0.702597
vt 0.705405 0.702735
vt 0.696437 0.702455
vt 0.773049 0.702463
vt 0.764080 0.702751
vt 0.751301 0.702607
vt 0.743525 0.702498
vt 0.734745 0.702445
vt 0.200159 0.477362
vt 0.186259 0.422948
vt 0.513897 0.000409
vt 0.404066 0.572585
vt 0.347051 0.740893
vt 0.343628 0.769124
vt 0.317142 0.770120
vt 0.316009 0.742503
vt 0.342591 0.689270
vt 0.340898 0.712960
vt 0.314953 0.715432
vt 0.314306 0.689181
vt 0.628500 0.000195
vt 0.652323 0.000000
vt 0.656856 0.028907
vt 0.627889 0.029163
vt 0.000000 0.782091
vt 0.001411 0.775275
vt 0.006514 0.774963
vt 0.006514 0.782091
vt 0.397561 0.716993
vt 0.369093 0.718471
vt 0.370385 0.690930
vt 0.398862 0.692682
vt 0.068531 0.420616
vt 0.047034 0.412347
vt 0.045795 0.391952
vt 0.071431 0.395377
vt 0.034834 0.774963
vt 0.039868 0.775980
vt 0.041487 0.782372
vt 0.034751 0.782296
vt 0.369037 0.429172
vt 0.398783 0.429766
vt 0.398959 0.452520
vt 0.369571 0.453594
vt 0.315360 0.477674
vt 0.344550 0.472567
vt 0.342845 0.572491
vt 0.314311 0.572288
vt 0.548674 0.429173
vt 0.641045 0.429173
vt 0.641045 0.457750
vt 0.548674 0.457749
vt 0.372189 0.478553
vt 0.399723 0.479080
vt 0.397345 0.572362
vt 0.369938 0.572415
vt 0.072123 0.301684
vt 0.047874 0.303039
vt 0.045546 0.213117
vt 0.070300 0.212172
vt 0.027827 0.305509
vt 0.007833 0.308249
vt 0.004942 0.215437
vt 0.025119 0.214233
vt 0.653427 0.262977
vt 0.653344 0.353348
vt 0.628773 0.353917
vt 0.628844 0.263321
vt 0.404066 0.486326
vt 0.422745 0.466206
vt 0.430184 0.468464
vt 0.430184 0.486326
vt 0.445748 0.457749
vt 0.442759 0.449292
vt 0.456302 0.429172
vt 0.456302 0.457749
vt 0.430184 0.447035
vt 0.422745 0.449292
vt 0.406946 0.432272
vt 0.430184 0.429172
vt 0.420392 0.457749
vt 0.404066 0.457749
vt 0.667293 0.468369
vt 0.676781 0.465658
vt 0.693542 0.486326
vt 0.667293 0.486326
vt 0.680033 0.457750
vt 0.676781 0.449841
vt 0.689190 0.434224
vt 0.693542 0.457750
vt 0.667293 0.447130
vt 0.667293 0.429173
vt 0.657805 0.449841
vt 0.654553 0.457750
vt 0.820286 0.562534
vt 0.819083 0.429609
vt 0.824200 0.429535
vt 0.826476 0.562542
vt 0.785810 0.429172
vt 0.792676 0.429390
vt 0.789367 0.562490
vt 0.781695 0.562190
vt 0.800039 0.429533
vt 0.805156 0.429607
vt 0.803917 0.562532
vt 0.797727 0.562540
vt 0.812120 0.429638
vt 0.812102 0.562528
vt 0.909540 0.562447
vt 0.916300 0.702425
vt 0.906434 0.702678
vt 0.902351 0.562697
vt 0.866461 0.562448
vt 0.859735 0.702429
vt 0.851191 0.702057
vt 0.859036 0.562144
vt 0.873650 0.562697
vt 0.869600 0.702680
vt 0.879466 0.702894
vt 0.880457 0.562875
vt 0.888000 0.562958
vt 0.888017 0.702966
vt 0.100081 0.301208
vt 0.098781 0.211667
vt 0.600201 0.263319
vt 0.600149 0.353885
vt 0.548674 0.486326
vt 0.641045 0.486326
vt 0.287129 0.743374
vt 0.287674 0.770903
vt 0.286150 0.689575
vt 0.286564 0.716165
vt 0.286033 0.572102
vt 0.285925 0.663660
vt 0.342451 0.663679
vt 0.314100 0.663540
vt 0.400066 0.665715
vt 0.370978 0.664715
vt 0.097616 0.118834
vt 0.043573 0.119630
vt 0.068729 0.119131
vt 0.002661 0.120869
vt 0.022881 0.120195
vt 0.653328 0.170416
vt 0.628771 0.170594
vt 0.600180 0.170598
vt 0.097127 0.004214
vt 0.038646 0.000000
vt 0.068204 0.004138
vt 0.000000 0.006778
vt 0.020142 0.005460
vt 0.653441 0.058214
vt 0.628846 0.058280
vt 0.600175 0.058420
vt 0.600080 0.424891
vt 0.649593 0.419038
vt 0.628658 0.424923
vt 0.032598 0.380760
vt 0.013205 0.376080
vt 0.073322 0.369303
vt 0.051869 0.368442
vt 0.456302 0.486326
vt 0.442759 0.466206
vt 0.831564 0.429394
vt 0.834835 0.562493
vt 0.013869 0.775275
vt 0.013029 0.782091
vt 0.286521 0.477487
vt 0.001411 0.788907
vt 0.006514 0.789218
vt 0.013869 0.788906
vt 0.838430 0.429178
vt 0.842508 0.562201
vt 0.657805 0.465658
vt 0.895544 0.562874
vt 0.896568 0.702892
vt 0.039724 0.788726
vt 0.034669 0.789629
vt 0.916965 0.562144
vt 0.924844 0.702054
vt 0.599998 0.000120
vt 0.600003 0.029257
vt 0.098607 0.422671
vt 0.099660 0.397195
vt 0.100523 0.369812
vt 0.028016 0.782220
vt 0.028160 0.775848
vt 0.028016 0.788594
vt 0.340167 0.453806
vt 0.339329 0.433724
vt 0.887998 0.429878
vt 0.894373 0.429856
vt 0.881623 0.429856
vt 0.874894 0.429620
vt 0.869763 0.429401
vt 0.863172 0.429172
vt 0.906233 0.429402
vt 0.912824 0.429172
vt 0.901103 0.429620
vt 0.820897 0.702501
vt 0.828674 0.702607
vt 0.841456 0.702748
vt 0.850425 0.702470
vt 0.782784 0.702748
vt 0.773815 0.702458
vt 0.795562 0.702607
vt 0.803337 0.702500
vt 0.812117 0.702450
vn 0.679730 -0.002170 0.733459
vn 0.050734 -0.000000 0.998712
vn 0.050737 -0.136342 0.989362
vn 0.655151 -0.201013 0.728266
vn 0.696521 0.710271 0.101852
vn 0.056182 0.991193 0.119917
vn 0.054782 0.660877 0.748492
vn 0.528245 0.597234 0.603547
vn 0.103076 -0.175118 -0.979137
vn 0.112186 0.011815 -0.993617
vn 0.693920 0.013884 -0.719919
vn 0.663783 -0.189377 -0.723553
vn 0.000000 -1.000000 -0.000000
vn 0.000000 -1.000000 -0.000000
vn 0.000000 -1.000000 -0.000000
vn 0.000000 -1.000000 0.000000
vn 0.983232 -0.173381 0.056521
vn 0.998081 -0.000047 0.061923
vn 0.130537 0.180942 -0.974792
vn 0.114673 0.993392 -0.004812
vn 0.911495 0.410176 -0.030536
vn 0.669277 0.110048 -0.734818
vn 0.000000 -1.000000 -0.000000
vn 0.000000 -1.000000 -0.000000
vn 0.000000 -1.000000 -0.000000
vn 0.000000 -1.000000 -0.000000
vn 0.994266 -0.002441 -0.106908
vn 0.979769 -0.168103 -0.108597
vn 0.075390 0.996143 -0.044884
vn 0.071662 0.997295 -0.016358
vn 0.679050 0.734001 -0.011551
vn 0.814582 0.429830 0.389489
vn 0.000000 -1.000000 0.000000
vn 0.000000 -1.000000 0.000000
vn 0.000000 -0.999110 0.042194
vn 0.000000 -0.999130 0.041704
vn 0.999993 0.003676 0.000603
vn 0.999982 0.006009 -0.000790
vn 0.985051 -0.172264 0.000719
vn 0.984863 -0.173267 0.004884
vn 0.125315 0.118083 0.985065
vn 0.121837 0.065757 0.990370
vn 0.672201 0.049244 0.738729
vn 0.684679 0.098864 0.722109
vn 0.999711 0.022615 -0.008103
vn 0.999977 -0.000334 -0.006723
vn 0.680015 -0.048589 -0.731586
vn 0.684292 -0.062885 -0.726492
vn 0.134283 -0.065866 -0.988752
vn 0.131891 -0.100645 -0.986142
vn 0.000000 -1.000000 0.000000
vn 0.000000 -1.000000 -0.000000
vn 0.000000 -1.000000 -0.000000
vn 0.000000 -1.000000 0.000000
vn 0.000000 -1.000000 0.000000
vn 0.000000 -0.999075 -0.042996
vn 0.000000 -0.999126 -0.041802
vn 0.000000 -1.000000 0.000000
vn 0.000000 -1.000000 0.000000
vn 0.000000 -1.000000 0.000000
vn 0.000000 -1.000000 0.000000
vn 0.000000 -1.000000 0.000000
vn 0.000000 -1.000000 0.000000
vn 0.000000 -1.000000 0.000000
vn 0.000000 -1.000000 0.000000
vn 0.000000 -1.000000 0.000000
vn 0.000000 -1.000000 0.000000
vn 0.000000 -1.000000 0.000000
vn 0.000000 -1.000000 0.000001
vn 0.000000 -1.000000 0.000000
vn 0.000000 -1.000000 -0.000001
vn 0.000000 -1.000000 -0.000001
vn 0.000000 -1.000000 -0.000001
vn 0.000000 -1.000000 -0.000001
vn 0.000000 -1.000000 0.000001
vn 0.000000 -1.000000 0.000001
vn -0.672661 -0.000078 0.739951
vn -0.999937 -0.010905 0.002522
vn -0.999913 -0.013162 0.000017
vn -0.674695 -0.014328 0.737958
vn -0.000000 -0.011549 -0.999933
vn -0.000000 -0.042575 -0.999093
vn 0.736291 -0.033346 -0.675843
vn 0.674345 -0.016221 -0.738238
vn 0.999913 -0.013162 0.000017
vn 0.999937 -0.010905 0.002522
vn 0.672661 -0.000078 0.739951
vn 0.674695 -0.014328 0.737958
vn 0.000000 0.004101 0.999992
vn 0.000000 -0.012510 0.999922
vn -0.710480 -0.009837 -0.703649
vn -0.999938 -0.010808 0.002712
vn -0.999951 -0.009786 -0.001121
vn -0.726126 -0.021795 -0.687216
vn 0.710479 -0.009837 -0.703650
vn -0.000000 -0.009650 -0.999953
vn 0.000000 -0.030387 -0.999538
vn 0.726126 -0.021795 -0.687216
vn 0.999952 -0.009786 -0.001121
vn 0.999938 -0.010808 0.002712
vn 0.727556 -0.014933 0.685886
vn 0.000000 -0.020592 0.999788
vn 0.000000 -0.028066 0.999606
vn 0.706554 -0.022344 0.707307
vn 0.000000 0.117621 0.993059
vn -0.000000 0.117621 0.993059
vn 0.000000 0.066368 0.997795
vn 0.000000 0.066368 0.997795
vn -0.000000 -0.066368 -0.997795
vn -0.000000 -0.066368 -0.997795
vn 0.000000 -0.102453 -0.994738
vn 0.000000 -0.102453 -0.994738
vn 0.000000 -1.000000 -0.000000
vn 0.000000 -1.000000 0.000000
vn 0.000000 -1.000000 0.000000
vn 0.000000 -1.000000 0.000000
vn 0.000000 -0.999334 0.036506
vn 0.000000 -0.999290 0.037675
vn 0.000000 0.000000 1.000000
vn -0.000000 -0.000000 1.000000
vn -0.000000 -0.132089 0.991238
vn 0.000000 -0.132089 0.991238
vn -0.000000 0.990538 0.137237
vn -0.000000 0.990538 0.137237
vn -0.000000 0.674033 0.738702
vn -0.000000 0.674033 0.738701
vn -0.019817 0.999667 -0.016534
vn -0.000000 0.999863 -0.016543
vn -0.000000 0.999991 0.004276
vn -0.015452 0.999840 0.009061
vn 0.072299 0.997108 0.023414
vn 0.690189 0.723421 0.017361
vn 0.999998 -0.001836 -0.000617
vn 0.985518 -0.169478 -0.005624
vn 0.000000 0.031464 0.999505
vn 0.000000 0.031464 0.999505
vn 0.114642 0.033446 0.992844
vn 0.661472 0.032981 0.749244
vn 0.999120 0.003511 -0.041800
vn 0.676506 -0.031910 -0.735745
vn 0.134042 -0.042953 -0.990044
vn -0.000000 -0.043348 -0.999060
vn -0.000000 -0.043348 -0.999060
vn 0.000000 0.021894 0.999760
vn 0.000000 0.021894 0.999760
vn 0.113941 0.026344 0.993138
vn 0.997077 0.042115 -0.063740
vn 0.686069 0.027482 -0.727017
vn 0.133895 0.009612 -0.990949
vn -0.003765 -0.006816 -0.999970
vn -0.000000 -0.010536 -0.999945
vn 0.000000 0.189488 -0.981883
vn 0.000000 0.189488 -0.981883
vn 0.129160 0.422762 0.896990
vn 0.686869 0.302323 0.660917
vn 0.000000 -1.000000 0.000000
vn 0.000000 -0.999332 -0.036547
vn 0.000000 -0.999288 -0.037727
vn 0.000000 -1.000000 -0.000000
vn -0.736291 -0.033346 -0.675843
vn -0.674345 -0.016221 -0.738238
vn 0.000000 -1.000000 0.000000
vn 0.000000 -1.000000 -0.000000
vn -0.019818 0.999421 -0.027647
vn 0.000000 -1.000000 -0.000000
vn 0.000000 -1.000000 0.000000
vn 0.000000 -1.000000 0.000000
vn 0.000000 -1.000000 0.000000
vn -0.706554 -0.022344 0.707306
vn -0.727556 -0.014933 0.685886
vn 0.000000 -1.000000 0.000000
vn 0.000000 -1.000000 0.000000
vn -0.018175 -0.134013 -0.990813
vn -0.018383 0.000000 -0.999831
vn 0.000000 0.999982 -0.006042
vn 0.000000 0.433071 0.901360
vn -0.000000 0.999982 -0.006041
vn -0.000000 0.433071 0.901360
vn 0.000000 -1.000000 0.000000
vn 0.000000 -1.000000 0.000000
vn 0.000000 -1.000000 0.000000
vn -0.000000 -0.000000 -1.000000
vn 0.000000 -0.036954 0.999317
vn -0.679276 -0.032351 0.733169
vn 0.679275 -0.032351 0.733170
vn 0.999915 -0.011957 -0.005197
vn 0.672875 0.006400 -0.739728
vn -0.000000 0.014765 -0.999891
vn -0.672876 0.006400 -0.739728
vn -0.999915 -0.011956 -0.005197
vn -0.677872 0.010898 0.735100
vn -0.999945 -0.009516 -0.004486
vn -0.756819 -0.045920 -0.652010
vn -0.000000 -0.068784 -0.997632
vn 0.756819 -0.045920 -0.652010
vn 0.999945 -0.009516 -0.004485
vn 0.677871 0.010898 0.735100
vn -0.000000 0.018281 0.999833
vn -0.000000 0.999765 -0.021673
vn -0.000000 -0.116338 -0.993210
vn 0.000000 -1.000000 0.000000
vn -0.679731 -0.002170 0.733459
vn -0.655151 -0.201013 0.728266
vn -0.050737 -0.136341 0.989362
vn -0.050734 0.000000 0.998712
vn -0.696521 0.710271 0.101852
vn -0.528245 0.597234 0.603547
vn -0.054782 0.660877 0.748493
vn -0.056182 0.991193 0.119917
vn -0.103076 -0.175118 -0.979137
vn -0.663783 -0.189376 -0.723553
vn -0.693920 0.013884 -0.719919
vn -0.112185 0.011815 -0.993617
vn 0.000000 -1.000000 0.000000
vn 0.000000 -1.000000 0.000000
vn 0.000000 -1.000000 0.000000
vn 0.000000 -1.000000 0.000000
vn -0.998081 -0.000047 0.061923
vn -0.983232 -0.173381 0.056521
vn -0.130538 0.180942 -0.974792
vn -0.669278 0.110048 -0.734818
vn -0.911495 0.410176 -0.030536
vn -0.114673 0.993392 -0.004811
vn 0.000000 -1.000000 0.000000
vn 0.000000 -1.000000 0.000000
vn 0.000000 -1.000000 0.000000
vn 0.000000 -1.000000 0.000000
vn -0.979769 -0.168103 -0.108597
vn -0.994266 -0.002441 -0.106908
vn -0.075390 0.996143 -0.044884
vn -0.814583 0.429830 0.389489
vn -0.679050 0.734001 -0.011551
vn -0.071662 0.997295 -0.016358
vn 0.000000 -1.000000 0.000000
vn 0.000000 -0.999130 0.041704
vn 0.000000 -0.999109 0.042194
vn 0.000000 -1.000000 0.000000
vn -0.999993 0.003676 0.000603
vn -0.984863 -0.173267 0.004884
vn -0.985051 -0.172263 0.000719
vn -0.999982 0.006009 -0.000790
vn -0.125315 0.118083 0.985065
vn -0.684679 0.098864 0.722109
vn -0.672201 0.049244 0.738729
vn -0.121837 0.065757 0.990370
vn -0.999711 0.022615 -0.008103
vn -0.684292 -0.062885 -0.726492
vn -0.680015 -0.048589 -0.731586
vn -0.999977 -0.000334 -0.006723
vn -0.131891 -0.100645 -0.986142
vn -0.134283 -0.065866 -0.988752
vn 0.000000 -1.000000 0.000000
vn 0.000000 -1.000000 0.000000
vn 0.000000 -1.000000 0.000001
vn 0.000000 -1.000000 0.000001
vn 0.000000 -1.000000 -0.000001
vn 0.000000 -1.000000 0.000001
vn 0.000000 -0.999126 -0.041803
vn 0.000000 -0.999075 -0.042997
vn 0.000000 -1.000000 0.000001
vn 0.000000 -1.000000 -0.000001
vn 0.000000 -1.000000 -0.000001
vn 0.000000 -1.000000 0.000001
vn 0.000000 -1.000000 -0.000001
vn 0.000000 -1.000000 -0.000001
vn 0.000000 -1.000000 -0.000000
vn 0.000000 -1.000000 0.000000
vn 0.000000 -1.000000 0.000000
vn 0.000000 -1.000000 -0.000000
vn 0.000000 -1.000000 0.000001
vn 0.000000 -1.000000 0.000001
vn 0.000000 -1.000000 0.000001
vn 0.000000 -1.000000 0.000001
vn 0.000000 -1.000000 0.000000
vn 0.000000 -1.000000 0.000000
vn 0.000000 -1.000000 0.000000
vn 0.000000 -1.000000 0.000000
vn 0.672660 -0.000078 0.739951
vn 0.674694 -0.014328 0.737958
vn 0.999913 -0.013162 0.000017
vn 0.999937 -0.010905 0.002522
vn 0.000000 -0.011549 -0.999933
vn -0.674345 -0.016221 -0.738238
vn -0.736291 -0.033346 -0.675843
vn 0.000000 -0.042575 -0.999093
vn -0.999913 -0.013162 0.000017
vn -0.674694 -0.014328 0.737958
vn -0.672660 -0.000078 0.739951
vn -0.999937 -0.010905 0.002521
vn 0.000000 -0.012510 0.999922
vn -0.000000 0.004101 0.999992
vn 0.710479 -0.009837 -0.703649
vn 0.726126 -0.021795 -0.687216
vn 0.999951 -0.009787 -0.001121
vn 0.999938 -0.010808 0.002712
vn -0.710479 -0.009837 -0.703650
vn -0.726126 -0.021795 -0.687216
vn -0.000000 -0.030387 -0.999538
vn 0.000000 -0.009650 -0.999954
vn -0.999938 -0.010808 0.002712
vn -0.999951 -0.009786 -0.001121
vn -0.727555 -0.014933 0.685887
vn -0.706554 -0.022344 0.707307
vn -0.000000 -0.028066 0.999606
vn 0.000000 -0.020592 0.999788
vn -0.000000 0.117621 0.993059
vn 0.000000 0.066368 0.997795
vn 0.000000 -0.066368 -0.997795
vn 0.000000 -0.102453 -0.994738
vn 0.000000 -1.000000 0.000000
vn 0.000000 -0.999290 0.037675
vn -0.000000 -0.000000 1.000000
vn -0.000000 -0.132089 0.991238
vn 0.000000 0.990538 0.137237
vn -0.000000 0.674033 0.738702
vn 0.019817 0.999667 -0.016534
vn 0.015452 0.999840 0.009061
vn -0.690189 0.723421 0.017361
vn -0.072299 0.997108 0.023414
vn -0.985518 -0.169478 -0.005624
vn -0.999998 -0.001836 -0.000617
vn 0.000000 0.031464 0.999505
vn -0.661472 0.032981 0.749244
vn -0.114642 0.033447 0.992844
vn -0.676506 -0.031910 -0.735745
vn -0.999120 0.003511 -0.041800
vn -0.134041 -0.042953 -0.990044
vn -0.000000 -0.043348 -0.999060
vn 0.000000 0.021894 0.999760
vn -0.113941 0.026344 0.993138
vn -0.686068 0.027482 -0.727018
vn -0.997077 0.042115 -0.063740
vn -0.133895 0.009612 -0.990949
vn 0.003765 -0.006816 -0.999970
vn 0.000000 0.189488 -0.981883
vn -0.129160 0.422761 0.896990
vn -0.686869 0.302324 0.660917
vn 0.000000 -0.999288 -0.037727
vn 0.000000 -1.000000 -0.000000
vn 0.674345 -0.016221 -0.738238
vn 0.736291 -0.033346 -0.675843
vn 0.000000 -1.000000 0.000000
vn 0.000000 -1.000000 0.000000
vn 0.019818 0.999421 -0.027647
vn 0.000000 -1.000000 0.000000
vn 0.000000 -1.000000 0.000000
vn 0.000000 -1.000000 0.000000
vn 0.000000 -1.000000 -0.000000
vn 0.706554 -0.022344 0.707306
vn 0.727555 -0.014933 0.685887
vn 0.000000 -1.000000 0.000000
vn 0.000000 -1.000000 0.000000
vn 0.018175 -0.134013 -0.990813
vn 0.018383 0.000000 -0.999831
vn -0.000000 0.999982 -0.006041
vn -0.000000 0.433071 0.901360
vn 0.000000 -1.000000 0.000000
vn 0.000000 -1.000000 0.000000
vn 0.000000 -1.000000 0.000000
vn 0.000000 -0.036954 0.999317
vn 0.679277 -0.032351 0.733169
vn -0.679276 -0.032351 0.733169
vn -0.999915 -0.011957 -0.005197
vn -0.672875 0.006400 -0.739729
vn 0.000000 0.014765 -0.999891
vn 0.672875 0.006400 -0.739728
vn 0.999915 -0.011956 -0.005197
vn 0.677871 0.010898 0.735100
vn 0.999945 -0.009516 -0.004486
vn 0.756819 -0.045920 -0.652010
vn 0.000000 -0.068784 -0.997632
vn -0.756819 -0.045920 -0.652010
vn -0.999945 -0.009516 -0.004486
vn -0.677871 0.010898 0.735100
vn -0.000000 0.018281 0.999833
s 1
g Chair
usemtl initialShadingGroup
f 111/1/1 112/2/2 66/3/3 1/4/4
f 59/5/5 64/6/6 65/7/7 2/8/8
f 79/9/9 104/10/10 105/11/11 4/12/12
s 4
f 68/13/13 69/14/14 56/15/15 32/16/16
s 1
f 1/17/4 58/18/17 110/19/18 111/20/1
f 84/21/19 90/22/20 91/23/21 20/24/22
s 6
f 98/25/23 99/26/24 77/27/25 35/28/26
s 1
f 105/29/11 106/30/27 96/31/28 4/32/12
f 61/33/29 62/34/30 38/35/31 5/36/32
s 8
f 39/37/33 73/38/34 74/39/35 6/40/36
s 1
f 107/41/37 108/42/38 39/43/39 6/44/40
f 86/45/41 87/46/42 42/47/43 51/48/44
f 92/49/45 93/50/46 43/51/47 50/52/48
f 43/53/47 82/54/49 83/55/50 50/56/48
s 8
f 11/57/51 53/58/52 54/59/53 21/60/54
f 71/61/55 72/62/56 8/63/57 23/64/58
f 57/65/59 58/66/60 1/67/61 24/68/62
f 1/67/61 66/69/63 67/70/64 24/68/62
f 101/71/65 102/72/66 14/73/67 26/74/68
f 78/75/69 79/76/70 4/77/71 27/78/72
f 4/77/71 96/79/73 97/80/74 27/78/72
f 6/40/36 74/39/35 75/81/75 28/82/76
s 13
f 122/83/77 123/84/78 55/85/79 29/86/80
f 70/87/81 125/88/82 126/89/83 31/90/84
f 56/91/85 127/92/86 128/93/87 32/94/88
f 128/93/87 129/95/89 68/96/90 32/94/88
s 15
f 120/97/91 121/98/92 101/99/93 26/100/94
f 118/101/95 119/102/96 78/103/97 27/104/98
f 27/104/98 97/105/99 117/106/100 118/101/95
f 28/107/101 75/108/102 115/109/103 116/110/104
s 1
f 52/111/105 147/112/106 142/113/107 41/114/108
f 44/115/109 143/116/110 146/117/111 49/118/112
s 8
f 102/72/66 151/119/113 135/120/114 14/73/67
f 40/121/115 141/122/116 136/123/117 13/124/118
s 1
f 113/125/119 153/126/120 138/127/121 11/128/122
f 60/129/123 149/130/124 139/131/125 10/132/126
f 37/133/127 140/134/128 130/135/129 9/136/130
f 38/35/31 62/34/30 63/137/131 7/138/132
f 108/42/38 109/139/133 8/140/134 39/43/39
s 8
f 72/62/56 73/38/34 39/37/33 8/63/57
s 1
f 41/114/108 142/113/107 144/141/135 45/142/136
f 87/46/42 88/143/137 46/144/138 42/47/43
f 93/50/46 94/145/139 47/146/140 43/51/47
f 47/147/140 81/148/141 82/54/49 43/53/47
f 48/149/142 145/150/143 143/116/110 44/115/109
f 45/142/136 144/141/135 131/151/144 16/152/145
f 88/143/137 61/153/146 5/154/32 46/144/138
f 94/145/139 95/155/147 3/156/148 47/146/140
f 3/157/148 80/158/149 81/148/141 47/147/140
f 15/159/150 134/160/151 145/150/143 48/149/142
f 49/118/112 146/117/111 133/161/152 17/162/153
f 50/56/48 83/55/50 84/163/19 20/164/22
f 91/165/21 92/49/45 50/52/48 20/166/22
f 85/167/154 86/45/41 51/48/44 19/168/155
s 8
f 53/58/52 148/169/156 137/170/157 12/171/158
f 54/59/53 53/58/52 12/171/158 22/172/159
s 13
f 55/85/79 123/84/78 124/173/160 30/174/161
s 4
f 56/15/15 69/14/14 70/175/162 31/176/163
s 13
f 126/89/83 127/92/86 56/91/85 31/90/84
s 8
f 8/63/57 58/66/60 57/65/59 23/64/58
s 1
f 109/139/133 110/19/18 58/18/17 8/140/134
f 63/137/131 64/6/6 59/5/5 7/138/132
f 16/177/164 37/133/127 62/34/30 61/33/29
f 63/137/131 62/34/30 37/133/127 9/136/130
f 9/136/130 60/129/123 64/6/6 63/137/131
f 65/7/7 64/6/6 60/129/123 10/132/126
f 112/2/2 113/125/119 11/128/122 66/3/3
s 8
f 67/70/64 66/69/63 11/57/51 21/60/54
s 13
f 68/96/90 129/95/89 122/83/77 29/86/80
s 4
f 29/178/165 55/179/166 69/14/14 68/13/13
f 70/175/162 69/14/14 55/179/166 30/180/167
s 13
f 124/173/160 125/181/82 70/182/81 30/174/161
s 8
f 12/171/158 72/62/56 71/61/55 22/172/159
f 12/171/158 40/121/115 73/38/34 72/62/56
f 74/39/35 73/38/34 40/121/115 13/124/118
f 75/81/75 74/39/35 13/124/118 25/183/168
s 15
f 114/184/169 115/109/103 75/108/102 25/185/170
s 6
f 99/26/24 100/186/171 34/187/172 77/27/25
s 15
f 26/100/94 78/188/97 119/189/96 120/97/91
s 8
f 14/73/67 79/76/70 78/75/69 26/74/68
s 1
f 14/190/173 103/191/174 104/10/10 79/9/9
f 81/148/141 80/158/149 15/159/150 48/149/142
f 82/54/49 81/148/141 48/149/142 44/115/109
f 83/55/50 82/54/49 44/115/109 49/118/112
f 84/163/19 83/55/50 49/118/112 17/162/153
f 17/192/153 89/193/175 90/22/20 84/21/19
f 52/111/105 86/45/41 85/167/154 18/194/176
f 41/114/108 87/46/42 86/45/41 52/111/105
f 45/142/136 88/143/137 87/46/42 41/114/108
f 16/152/145 61/153/146 88/143/137 45/142/136
f 89/193/175 150/195/177 132/196/178 18/194/176
f 90/22/20 89/193/175 18/194/176 85/167/154
f 91/23/21 90/22/20 85/167/154 19/168/155
f 51/48/44 92/49/45 91/165/21 19/168/155
f 42/47/43 93/50/46 92/49/45 51/48/44
f 46/144/138 94/145/139 93/50/46 42/47/43
f 5/154/32 95/155/147 94/145/139 46/144/138
f 106/30/27 107/41/37 6/44/40 96/31/28
s 8
f 97/80/74 96/79/73 6/40/36 28/82/76
s 15
f 116/110/104 117/106/100 97/105/99 28/107/101
s 6
f 76/197/179 99/26/24 98/25/23 36/198/180
f 33/199/181 100/186/171 99/26/24 76/197/179
s 15
f 25/185/170 101/99/93 121/98/92 114/184/169
s 8
f 13/124/118 102/72/66 101/71/65 25/183/168
s 1
f 103/191/174 152/200/182 134/160/151 15/159/150
f 104/10/10 103/191/174 15/159/150 80/158/149
f 105/11/11 104/10/10 80/158/149 3/157/148
f 95/201/147 106/30/27 105/29/11 3/202/148
f 5/36/32 107/41/37 106/30/27 95/201/147
f 38/35/31 108/42/38 107/41/37 5/36/32
f 7/138/132 109/139/133 108/42/38 38/35/31
f 59/5/5 110/19/18 109/139/133 7/138/132
f 111/20/1 110/19/18 59/5/5 2/8/8
f 65/7/7 112/2/2 111/1/1 2/8/8
f 10/132/126 113/125/119 112/2/2 65/7/7
s 15
f 76/203/183 115/109/103 114/184/169 33/204/184
f 116/110/104 115/109/103 76/203/183 36/205/185
f 98/206/186 117/106/100 116/110/104 36/205/185
f 118/101/95 117/106/100 98/206/186 35/207/187
f 77/208/188 119/102/96 118/101/95 35/207/187
f 120/97/91 119/189/96 77/209/188 34/210/189
f 100/211/190 121/98/92 120/97/91 34/210/189
f 114/184/169 121/98/92 100/211/190 33/204/184
s 13
f 21/212/191 54/213/192 123/84/78 122/83/77
f 124/173/160 123/84/78 54/213/192 22/214/193
f 22/214/193 71/215/194 125/181/82 124/173/160
f 126/89/83 125/88/82 71/216/194 23/217/195
f 23/217/195 57/218/196 127/92/86 126/89/83
f 128/93/87 127/92/86 57/218/196 24/219/197
f 24/219/197 67/220/198 129/95/89 128/93/87
f 122/83/77 129/95/89 67/220/198 21/212/191
s 1
f 131/221/199 140/134/128 37/133/127 16/177/164
f 133/222/152 150/195/177 89/193/175 17/192/153
f 135/223/200 152/200/182 103/191/174 14/190/173
s 8
f 138/224/201 148/169/156 53/58/52 11/57/51
f 137/170/157 141/122/116 40/121/115 12/171/158
s 1
f 132/196/178 147/112/106 52/111/105 18/194/176
f 130/135/129 149/130/124 60/129/123 9/136/130
s 8
f 136/123/117 151/119/113 102/72/66 13/124/118
s 1
f 139/131/125 153/126/120 113/125/119 10/132/126
f 264/225/202 154/226/203 219/227/204 265/228/205
f 212/229/206 155/230/207 218/231/208 217/232/209
f 232/233/210 157/234/211 258/235/212 257/236/213
s 27
f 221/237/214 185/238/215 209/239/216 222/240/217
s 1
f 154/241/203 264/242/202 263/243/218 211/244/219
f 237/245/220 173/246/221 244/247/222 243/248/223
s 29
f 251/249/224 188/250/225 230/251/226 252/252/227
s 1
f 258/253/212 157/254/211 249/255/228 259/256/229
f 214/257/230 158/258/231 191/259/232 215/260/233
s 8
f 192/261/234 159/262/235 227/263/236 226/264/237
s 1
f 260/265/238 159/266/239 192/267/240 261/268/241
f 239/269/242 204/270/243 195/271/244 240/272/245
f 245/273/246 203/274/247 196/275/248 246/276/249
f 196/277/248 203/278/247 236/279/250 235/280/251
s 8
f 164/281/252 174/282/253 207/283/254 206/284/255
f 224/285/256 176/286/257 161/287/258 225/288/259
f 210/289/260 177/290/261 154/291/262 211/292/263
f 154/291/262 177/290/261 220/293/264 219/294/265
f 254/295/266 179/296/267 167/297/268 255/298/269
f 231/299/270 180/300/271 157/301/272 232/302/273
f 157/301/272 180/300/271 250/303/274 249/304/275
f 159/262/235 181/305/276 228/306/277 227/263/236
s 38
f 275/307/278 182/308/279 208/309/280 276/310/281
f 223/311/282 184/312/283 279/313/284 278/314/285
f 209/315/286 185/316/287 281/317/288 280/318/289
f 281/317/288 185/316/287 221/319/290 282/320/291
s 41
f 273/321/292 179/322/293 254/323/294 274/324/295
f 271/325/296 180/326/297 231/327/298 272/328/299
f 180/326/297 271/325/296 270/329/300 250/330/301
f 181/331/302 269/332/303 268/333/304 228/334/305
s 1
f 205/335/306 194/336/307 142/113/107 147/112/106
f 197/337/308 202/338/309 146/117/111 143/116/110
s 8
f 255/298/269 167/297/268 135/120/114 151/119/113
f 193/339/310 166/340/311 136/123/117 141/122/116
s 1
f 266/341/312 164/342/313 138/127/121 153/126/120
f 213/343/314 163/344/315 139/131/125 149/130/124
f 190/345/316 162/346/317 130/135/129 140/134/128
f 191/259/232 160/347/318 216/348/319 215/260/233
f 261/268/241 192/267/240 161/349/320 262/350/321
s 8
f 225/288/259 161/287/258 192/261/234 226/264/237
s 1
f 194/336/307 198/351/322 144/141/135 142/113/107
f 240/272/245 195/271/244 199/352/323 241/353/324
f 246/276/249 196/275/248 200/354/325 247/355/326
f 200/356/325 196/277/248 235/280/251 234/357/327
f 201/358/328 197/337/308 143/116/110 145/150/143
f 198/351/322 169/359/329 131/151/144 144/141/135
f 241/353/324 199/352/323 158/360/231 214/361/330
f 247/355/326 200/354/325 156/362/331 248/363/332
f 156/364/331 200/356/325 234/357/327 233/365/333
f 168/366/334 201/358/328 145/150/143 134/160/151
f 202/338/309 170/367/335 133/161/152 146/117/111
f 203/278/247 173/368/221 237/369/220 236/279/250
f 244/370/222 173/371/221 203/274/247 245/273/246
f 238/372/336 172/373/337 204/270/243 239/269/242
s 8
f 206/284/255 165/374/338 137/170/157 148/169/156
f 207/283/254 175/375/339 165/374/338 206/284/255
s 38
f 208/309/280 183/376/340 277/377/341 276/310/281
s 27
f 209/239/216 184/378/342 223/379/343 222/240/217
s 38
f 279/313/284 184/312/283 209/315/286 280/318/289
s 8
f 161/287/258 176/286/257 210/289/260 211/292/263
s 1
f 262/350/321 161/349/320 211/244/219 263/243/218
f 216/348/319 160/347/318 212/229/206 217/232/209
f 169/380/344 214/257/230 215/260/233 190/345/316
f 216/348/319 162/346/317 190/345/316 215/260/233
f 162/346/317 216/348/319 217/232/209 213/343/314
f 218/231/208 163/344/315 213/343/314 217/232/209
f 265/228/205 219/227/204 164/342/313 266/341/312
s 8
f 220/293/264 174/282/253 164/281/252 219/294/265
s 38
f 221/319/290 182/308/279 275/307/278 282/320/291
s 27
f 182/381/345 221/237/214 222/240/217 208/382/346
f 223/379/343 183/383/347 208/382/346 222/240/217
s 38
f 277/377/341 183/376/340 223/384/282 278/385/285
s 8
f 165/374/338 175/375/339 224/285/256 225/288/259
f 165/374/338 225/288/259 226/264/237 193/339/310
f 227/263/236 166/340/311 193/339/310 226/264/237
f 228/306/277 178/386/348 166/340/311 227/263/236
s 41
f 267/387/349 178/388/350 228/334/305 268/333/304
s 29
f 252/252/227 230/251/226 187/389/351 253/390/352
s 41
f 179/322/293 273/321/292 272/391/299 231/392/298
s 8
f 167/297/268 179/296/267 231/299/270 232/302/273
s 1
f 167/393/353 232/233/210 257/236/213 256/394/354
f 234/357/327 201/358/328 168/366/334 233/365/333
f 235/280/251 197/337/308 201/358/328 234/357/327
f 236/279/250 202/338/309 197/337/308 235/280/251
f 237/369/220 170/367/335 202/338/309 236/279/250
f 170/395/335 237/245/220 243/248/223 242/396/355
f 205/335/306 171/397/356 238/372/336 239/269/242
f 194/336/307 205/335/306 239/269/242 240/272/245
f 198/351/322 194/336/307 240/272/245 241/353/324
f 169/359/329 198/351/322 241/353/324 214/361/330
f 242/396/355 171/397/356 132/196/178 150/195/177
f 243/248/223 238/372/336 171/397/356 242/396/355
f 244/247/222 172/373/337 238/372/336 243/248/223
f 204/270/243 172/373/337 244/370/222 245/273/246
f 195/271/244 204/270/243 245/273/246 246/276/249
f 199/352/323 195/271/244 246/276/249 247/355/326
f 158/360/231 199/352/323 247/355/326 248/363/332
f 259/256/229 249/255/228 159/266/239 260/265/238
s 8
f 250/303/274 181/305/276 159/262/235 249/304/275
s 41
f 269/332/303 181/331/302 250/330/301 270/329/300
s 29
f 229/398/357 189/399/358 251/249/224 252/252/227
f 186/400/359 229/398/357 252/252/227 253/390/352
s 41
f 178/388/350 267/387/349 274/324/295 254/323/294
s 8
f 166/340/311 178/386/348 254/295/266 255/298/269
s 1
f 256/394/354 168/366/334 134/160/151 152/200/182
f 257/236/213 233/365/333 168/366/334 256/394/354
f 258/235/212 156/364/331 233/365/333 257/236/213
f 248/401/332 156/402/331 258/253/212 259/256/229
f 158/258/231 248/401/332 259/256/229 260/265/238
f 191/259/232 158/258/231 260/265/238 261/268/241
f 160/347/318 191/259/232 261/268/241 262/350/321
f 212/229/206 160/347/318 262/350/321 263/243/218
f 264/242/202 155/230/207 212/229/206 263/243/218
f 218/231/208 155/230/207 264/225/202 265/228/205
f 163/344/315 218/231/208 265/228/205 266/341/312
s 41
f 229/403/360 186/404/361 267/387/349 268/333/304
f 269/332/303 189/405/362 229/403/360 268/333/304
f 251/406/363 189/405/362 269/332/303 270/329/300
f 271/325/296 188/407/364 251/406/363 270/329/300
f 230/408/365 188/407/364 271/325/296 272/328/299
f 273/321/292 187/409/366 230/410/365 272/391/299
f 253/411/367 187/409/366 273/321/292 274/324/295
f 267/387/349 186/404/361 253/411/367 274/324/295
s 38
f 174/412/368 275/307/278 276/310/281 207/413/369
f 277/377/341 175/414/370 207/413/369 276/310/281
f 175/414/370 277/377/341 278/385/285 224/415/371
f 279/313/284 176/416/372 224/417/371 278/314/285
f 176/416/372 279/313/284 280/318/289 210/418/373
f 281/317/288 177/419/374 210/418/373 280/318/289
f 177/419/374 281/317/288 282/320/291 220/420/375
f 275/307/278 174/412/368 220/420/375 282/320/291
s 1
f 131/221/199 169/380/344 190/345/316 140/134/128
f 133/222/152 170/395/335 242/396/355 150/195/177
f 135/223/200 167/393/353 256/394/354 152/200/182
s 8
f 138/224/201 164/281/252 206/284/255 148/169/156
f 137/170/157 165/374/338 193/339/310 141/122/116
s 1
f 132/196/178 171/397/356 205/335/306 147/112/106
f 130/135/129 162/346/317 213/343/314 149/130/124
s 8
f 136/123/117 166/340/311 255/298/269 151/119/113
s 1
f 139/131/125 163/344/315 266/341/312 153/126/120
