# This file uses centimeters as units for non-parametric coordinates.

g default
v -2.635224 0.200514 2.760496
v -2.635224 0.200514 5.330578
v -2.635224 0.615438 5.330578
v -2.635224 0.615438 2.760496
v 2.635224 0.200514 5.330578
v 2.635224 0.615438 5.330578
v 2.635224 0.200514 2.760496
v 2.635224 0.615438 2.760496
vt 0.125000 0.125000
vt 0.328125 0.125000
vt 0.328125 0.187500
vt 0.125000 0.187500
vt 0.556641 0.125000
vt 0.556641 0.187500
vt 0.796875 0.125000
vt 0.796875 0.187500
vt 0.625000 0.625000
vt 0.431641 0.625000
vt 0.431641 0.562500
vt 0.625000 0.562500
vn -1.000000 0.000000 0.000000
vn -1.000000 0.000000 0.000000
vn -1.000000 0.000000 0.000000
vn -1.000000 0.000000 0.000000
vn 0.000000 0.000000 1.000000
vn 0.000000 0.000000 1.000000
vn 0.000000 0.000000 1.000000
vn 0.000000 0.000000 1.000000
vn 1.000000 0.000000 0.000000
vn 1.000000 0.000000 0.000000
vn 1.000000 0.000000 0.000000
vn 1.000000 0.000000 0.000000
vn 0.000000 0.000000 -1.000000
vn 0.000000 0.000000 -1.000000
vn 0.000000 0.000000 -1.000000
vn 0.000000 0.000000 -1.000000
s off
g Line polySurface2 pCube1
f 1/1/1 2/2/2 3/3/3 4/4/4
f 2/2/5 5/5/6 6/6/7 3/3/8
f 5/5/9 7/7/10 8/8/11 6/6/12
f 7/9/13 1/10/14 4/11/15 8/12/16
g default
v 1.083152 0.883954 4.371158
v 1.083152 0.883954 3.738238
v 0.333820 0.883954 3.738238
v 0.333820 0.883954 4.371158
v -0.342537 0.883954 2.983850
v -0.342537 0.883954 3.738238
v 0.333820 0.883954 2.983850
v -0.342537 0.883954 4.371158
v -0.342537 0.883954 5.112214
v 0.333820 0.883954 5.112214
v -1.110648 0.883954 3.738238
v -1.110648 0.883954 4.371158
vt 0.562500 0.375000
vt 0.500000 0.375000
vt 0.500000 0.312500
vt 0.562500 0.312500
vt 0.593750 0.312500
vt 0.593750 0.375000
vt 0.500000 0.500000
vt 0.562500 0.500000
vt 0.500000 0.250000
vt 0.562500 0.250000
vt 0.437500 0.375000
vt 0.437500 0.312500
vn 0.000000 1.000000 0.000000
vn 0.000000 1.000000 0.000000
vn 0.000000 1.000000 0.000000
vn 0.000000 1.000000 0.000000
vn 0.000000 1.000000 0.000000
vn 0.000000 1.000000 0.000000
vn 0.000000 1.000000 0.000000
vn 0.000000 1.000000 0.000000
vn 0.000000 1.000000 0.000000
vn 0.000000 1.000000 0.000000
vn 0.000000 1.000000 0.000000
vn 0.000000 1.000000 0.000000
vn 0.000000 1.000000 0.000000
vn 0.000000 1.000000 0.000000
vn 0.000000 1.000000 0.000000
vn 0.000000 1.000000 0.000000
vn 0.000000 1.000000 0.000000
vn 0.000000 1.000000 0.000000
vn 0.000000 1.000000 0.000000
vn 0.000000 1.000000 0.000000
s off
g pCube1 Cross
f 11/13/17 14/14/18 16/15/19 12/16/20
f 9/17/21 10/18/22 11/13/23 12/16/24
f 13/19/25 14/14/26 11/13/27 15/20/28
f 12/16/29 16/15/30 17/21/31 18/22/32
f 19/23/33 20/24/34 16/15/35 14/14/36
g default
v -2.612767 -0.004199 5.311376
v 2.612767 -0.004199 5.311376
v -2.612767 0.847058 5.311376
v 2.612767 0.847058 5.311376
v -2.612767 0.847058 2.779697
v 2.612767 0.847058 2.779697
v -2.612767 -0.004199 2.779697
v 2.612767 -0.004199 2.779697
vt 0.406250 0.312500
vt 0.406250 0.437500
vt 0.406250 0.796875
vt 0.593750 0.796875
vt 0.546875 0.437500
vt 0.406250 0.250000
vt 0.593750 0.250000
vt 0.593750 1.000000
vt 0.406250 1.000000
vt 0.500000 0.312500
vt 0.203125 0.250000
vt 0.203125 0.187500
vt 0.406250 0.187500
vt 0.406250 0.562500
vt 0.593750 0.562500
vt 0.796875 0.250000
vt 0.796875 0.187500
vt 0.593750 0.187500
vn 0.000000 1.000000 0.000000
vn 0.000000 1.000000 0.000000
vn 0.000000 1.000000 0.000000
vn 0.000000 1.000000 0.000000
vn 0.000000 -1.000000 -0.000000
vn 0.000000 -1.000000 -0.000000
vn 0.000000 -1.000000 -0.000000
vn 0.000000 -1.000000 -0.000000
vn -1.000000 0.000000 0.000000
vn -1.000000 0.000000 0.000000
vn -1.000000 0.000000 0.000000
vn -1.000000 0.000000 0.000000
vn 0.000000 0.000000 -1.000000
vn 0.000000 0.000000 -1.000000
vn 0.000000 0.000000 -1.000000
vn 0.000000 0.000000 -1.000000
vn 1.000000 0.000000 0.000000
vn 1.000000 0.000000 0.000000
vn 1.000000 0.000000 0.000000
vn 1.000000 0.000000 0.000000
vn 0.000000 -0.000000 1.000000
vn 0.000000 -0.000000 1.000000
vn 0.000000 -0.000000 1.000000
vn 0.000000 -0.000000 1.000000
s off
g polySurface2 pCube1 Box
f 25/25/37 23/30/38 24/31/39 26/34/40
f 21/33/41 27/27/42 28/28/43 22/32/44
f 25/35/45 27/36/46 21/37/47 23/30/48
f 28/39/49 27/38/50 25/26/51 26/29/52
f 22/42/53 28/41/54 26/40/55 24/31/56
f 23/30/57 21/37/58 22/42/59 24/31/60
