# This file uses centimeters as units for non-parametric coordinates.

mtllib produtos1.mtl
g default
v 0.444253 -1.219262 -0.375600
v 0.169689 -1.219262 -0.566353
v 0.154508 -0.177812 -0.542484
v 0.404509 -0.177812 -0.360848
v -0.169690 -1.219262 -0.566353
v -0.154509 -0.177812 -0.542484
v -0.444253 -1.219262 -0.375600
v -0.404509 -0.177812 -0.360848
v -0.549127 -1.219262 -0.066956
v -0.500000 -0.177812 -0.066956
v -0.444253 -1.219262 0.241689
v -0.404509 -0.177812 0.226937
v -0.169689 -1.219262 0.432442
v -0.154508 -0.177812 0.408573
v 0.169689 -1.219262 0.432442
v 0.154509 -0.177812 0.408573
v 0.444253 -1.219262 0.241689
v 0.404509 -0.177812 0.226937
v 0.549127 -1.219262 -0.066956
v 0.500000 -0.177812 -0.066956
vt 0.375000 0.350094
vt 0.400000 0.350094
vt 0.400000 0.387688
vt 0.375000 0.387688
vt 0.425000 0.350094
vt 0.425000 0.387688
vt 0.450000 0.350094
vt 0.450000 0.387688
vt 0.475000 0.350094
vt 0.475000 0.387688
vt 0.500000 0.350094
vt 0.500000 0.387688
vt 0.525000 0.350094
vt 0.525000 0.387688
vt 0.550000 0.350094
vt 0.550000 0.387688
vt 0.575000 0.350094
vt 0.575000 0.387688
vt 0.600000 0.350094
vt 0.600000 0.387688
vt 0.625000 0.350094
vt 0.625000 0.387688
vn 0.804352 0.000196 -0.594154
vn 0.304377 0.000095 -0.952552
vn 0.300350 0.081058 -0.950379
vn 0.798152 0.086687 -0.596186
vn 0.304377 0.000095 -0.952552
vn -0.304377 0.000095 -0.952552
vn -0.300350 0.081058 -0.950379
vn 0.300350 0.081058 -0.950379
vn -0.304377 0.000095 -0.952552
vn -0.804352 0.000196 -0.594153
vn -0.798152 0.086687 -0.596186
vn -0.300350 0.081058 -0.950379
vn -0.804352 0.000196 -0.594153
vn -1.000000 0.000336 0.000000
vn -0.995923 0.090205 0.000000
vn -0.798152 0.086687 -0.596186
vn -1.000000 0.000336 0.000000
vn -0.804352 0.000196 0.594154
vn -0.798152 0.086687 0.596187
vn -0.995923 0.090205 0.000000
vn -0.804352 0.000196 0.594154
vn -0.304377 0.000095 0.952552
vn -0.300350 0.081058 0.950379
vn -0.798152 0.086687 0.596187
vn -0.304377 0.000095 0.952552
vn 0.304377 0.000095 0.952552
vn 0.300350 0.081058 0.950379
vn -0.300350 0.081058 0.950379
vn 0.304377 0.000095 0.952552
vn 0.804352 0.000196 0.594154
vn 0.798152 0.086687 0.596186
vn 0.300350 0.081058 0.950379
vn 0.804352 0.000196 0.594154
vn 1.000000 0.000336 0.000000
vn 0.995923 0.090205 0.000000
vn 0.798152 0.086687 0.596186
vn 1.000000 0.000336 0.000000
vn 0.804352 0.000196 -0.594154
vn 0.798152 0.086687 -0.596186
vn 0.995923 0.090205 0.000000
s off
g rotulo produtos1:pCylinder1
usemtl produtos1:initialShadingGroup
f 1/1/1 2/2/2 3/3/3 4/4/4
f 2/2/5 5/5/6 6/6/7 3/3/8
f 5/5/9 7/7/10 8/8/11 6/6/12
f 7/7/13 9/9/14 10/10/15 8/8/16
f 9/9/17 11/11/18 12/12/19 10/10/20
f 11/11/21 13/13/22 14/14/23 12/12/24
f 13/13/25 15/15/26 16/16/27 14/14/28
f 15/15/29 17/17/30 18/18/31 16/16/32
f 17/17/33 19/19/34 20/20/35 18/18/36
f 19/19/37 1/21/38 4/22/39 20/20/40
g default
v 0.170086 1.560468 -0.191449
v 0.064967 1.560468 -0.268390
v -0.064967 1.560468 -0.268390
v -0.170086 1.560468 -0.191449
v -0.210238 1.560468 -0.066956
v -0.170086 1.560468 0.057538
v -0.064967 1.560468 0.134479
v 0.064967 1.560468 0.134479
v 0.170086 1.560468 0.057538
v 0.210238 1.560468 -0.066956
v 0.000000 1.560468 -0.066956
v 0.165591 1.346746 -0.199265
v 0.063250 1.346746 -0.281036
v -0.063250 1.346746 -0.281036
v -0.165591 1.346746 -0.199265
v -0.204682 1.346746 -0.066956
v -0.165591 1.346746 0.065353
v -0.063250 1.346746 0.147125
v 0.063250 1.346746 0.147125
v 0.165591 1.346746 0.065353
v 0.204682 1.346746 -0.066956
vt 0.375000 0.650846
vt 0.400000 0.650846
vt 0.400000 0.688440
vt 0.375000 0.688440
vt 0.425000 0.650846
vt 0.425000 0.688440
vt 0.450000 0.650846
vt 0.450000 0.688440
vt 0.475000 0.650846
vt 0.475000 0.688440
vt 0.500000 0.650846
vt 0.500000 0.688440
vt 0.525000 0.650846
vt 0.525000 0.688440
vt 0.550000 0.650846
vt 0.550000 0.688440
vt 0.575000 0.650846
vt 0.575000 0.688440
vt 0.600000 0.650846
vt 0.600000 0.688440
vt 0.625000 0.650846
vt 0.625000 0.688440
vt 0.626409 0.935591
vt 0.548284 0.992353
vt 0.500000 0.837500
vt 0.451716 0.992353
vt 0.373591 0.935591
vt 0.343750 0.843750
vt 0.373591 0.751909
vt 0.451716 0.695147
vt 0.548284 0.695147
vt 0.626409 0.751909
vt 0.656250 0.843750
vn 0.810122 -0.147061 -0.567517
vn 0.316388 -0.128478 -0.939889
vn 0.300734 0.403560 -0.864117
vn 0.770241 0.365964 -0.522302
vn 0.316388 -0.128478 -0.939889
vn -0.316388 -0.128478 -0.939889
vn -0.300734 0.403560 -0.864117
vn 0.300734 0.403560 -0.864117
vn -0.316388 -0.128478 -0.939889
vn -0.810122 -0.147061 -0.567517
vn -0.770241 0.365964 -0.522302
vn -0.300734 0.403560 -0.864117
vn -0.810122 -0.147061 -0.567517
vn -0.987458 -0.157884 0.000000
vn -0.939005 0.343904 0.000000
vn -0.770241 0.365964 -0.522302
vn -0.987458 -0.157884 0.000000
vn -0.810122 -0.147061 0.567517
vn -0.770241 0.365964 0.522302
vn -0.939005 0.343904 0.000000
vn -0.810122 -0.147061 0.567517
vn -0.316388 -0.128478 0.939889
vn -0.300734 0.403560 0.864117
vn -0.770241 0.365964 0.522302
vn -0.316388 -0.128478 0.939889
vn 0.316388 -0.128478 0.939889
vn 0.300734 0.403560 0.864117
vn -0.300734 0.403560 0.864117
vn 0.316388 -0.128478 0.939889
vn 0.810122 -0.147061 0.567517
vn 0.770241 0.365964 0.522302
vn 0.300734 0.403560 0.864117
vn 0.810122 -0.147061 0.567517
vn 0.987458 -0.157884 0.000000
vn 0.939005 0.343904 0.000000
vn 0.770241 0.365964 0.522302
vn 0.987458 -0.157884 0.000000
vn 0.810122 -0.147061 -0.567517
vn 0.770241 0.365964 -0.522302
vn 0.939005 0.343904 0.000000
vn 0.770241 0.365964 -0.522302
vn 0.300734 0.403560 -0.864117
vn 0.000000 1.000000 0.000001
vn 0.300734 0.403560 -0.864117
vn -0.300734 0.403560 -0.864117
vn 0.000000 1.000000 0.000001
vn -0.300734 0.403560 -0.864117
vn -0.770241 0.365964 -0.522302
vn 0.000000 1.000000 0.000001
vn -0.770241 0.365964 -0.522302
vn -0.939005 0.343904 0.000000
vn 0.000000 1.000000 0.000001
vn -0.939005 0.343904 0.000000
vn -0.770241 0.365964 0.522302
vn 0.000000 1.000000 0.000001
vn -0.770241 0.365964 0.522302
vn -0.300734 0.403560 0.864117
vn 0.000000 1.000000 0.000001
vn -0.300734 0.403560 0.864117
vn 0.300734 0.403560 0.864117
vn 0.000000 1.000000 0.000001
vn 0.300734 0.403560 0.864117
vn 0.770241 0.365964 0.522302
vn 0.000000 1.000000 0.000001
vn 0.770241 0.365964 0.522302
vn 0.939005 0.343904 0.000000
vn 0.000000 1.000000 0.000001
vn 0.939005 0.343904 0.000000
vn 0.770241 0.365964 -0.522302
vn 0.000000 1.000000 0.000001
s off
g produtos1:pCylinder1 polySurface3 polySurface2
usemtl produtos1:initialShadingGroup
f 32/23/41 33/24/42 22/25/43 21/26/44
f 33/24/45 34/27/46 23/28/47 22/25/48
f 34/27/49 35/29/50 24/30/51 23/28/52
f 35/29/53 36/31/54 25/32/55 24/30/56
f 36/31/57 37/33/58 26/34/59 25/32/60
f 37/33/61 38/35/62 27/36/63 26/34/64
f 38/35/65 39/37/66 28/38/67 27/36/68
f 39/37/69 40/39/70 29/40/71 28/38/72
f 40/39/73 41/41/74 30/42/75 29/40/76
f 41/41/77 32/43/78 21/44/79 30/42/80
f 21/45/81 22/46/82 31/47/83
f 22/46/84 23/48/85 31/47/86
f 23/48/87 24/49/88 31/47/89
f 24/49/90 25/50/91 31/47/92
f 25/50/93 26/51/94 31/47/95
f 26/51/96 27/52/97 31/47/98
f 27/52/99 28/53/100 31/47/101
f 28/53/102 29/54/103 31/47/104
f 29/54/105 30/55/106 31/47/107
f 30/55/108 21/45/109 31/47/110
g default
v 0.404509 -1.708628 -0.360848
v 0.154508 -1.708628 -0.542484
v -0.154509 -1.708628 -0.542484
v -0.404509 -1.708628 -0.360848
v -0.500000 -1.708628 -0.066956
v -0.404509 -1.708628 0.226937
v -0.154508 -1.708628 0.408573
v 0.154509 -1.708628 0.408573
v 0.404509 -1.708628 0.226937
v 0.500000 -1.708628 -0.066956
v 0.444253 -1.219262 -0.375600
v 0.169689 -1.219262 -0.566353
v -0.169690 -1.219262 -0.566353
v -0.444253 -1.219262 -0.375600
v -0.549127 -1.219262 -0.066956
v -0.444253 -1.219262 0.241689
v -0.169689 -1.219262 0.432442
v 0.169689 -1.219262 0.432442
v 0.444253 -1.219262 0.241689
v 0.549127 -1.219262 -0.066956
v 0.404509 -0.177812 -0.360848
v 0.154508 -0.177812 -0.542484
v -0.154509 -0.177812 -0.542484
v -0.404509 -0.177812 -0.360848
v -0.500000 -0.177812 -0.066956
v -0.404509 -0.177812 0.226937
v -0.154508 -0.177812 0.408573
v 0.154509 -0.177812 0.408573
v 0.404509 -0.177812 0.226937
v 0.500000 -0.177812 -0.066956
v 0.345373 0.004207 -0.310291
v 0.131921 0.004207 -0.460680
v -0.131921 0.004207 -0.460680
v -0.345373 0.004207 -0.310291
v -0.426904 0.004207 -0.066956
v -0.345373 0.004207 0.176380
v -0.131921 0.004207 0.326769
v 0.131921 0.004207 0.326769
v 0.345373 0.004207 0.176380
v 0.426904 0.004207 -0.066956
v 0.286944 0.197608 -0.261309
v 0.109603 0.197608 -0.381425
v -0.109603 0.197608 -0.381425
v -0.286944 0.197608 -0.261309
v -0.354682 0.197608 -0.066956
v -0.286944 0.197608 0.127397
v -0.109603 0.197608 0.247514
v 0.109603 0.197608 0.247514
v 0.286944 0.197608 0.127397
v 0.354682 0.197608 -0.066956
v 0.304922 0.345477 -0.277636
v 0.116470 0.345477 -0.407844
v -0.116470 0.345477 -0.407844
v -0.304922 0.345477 -0.277636
v -0.376904 0.345477 -0.066956
v -0.304922 0.345477 0.143725
v -0.116470 0.345477 0.273932
v 0.116470 0.345477 0.273932
v 0.304922 0.345477 0.143725
v 0.376904 0.345477 -0.066956
v 0.404509 0.527495 -0.360848
v 0.154508 0.527495 -0.542484
v -0.154509 0.527495 -0.542484
v -0.404509 0.527495 -0.360848
v -0.500000 0.527495 -0.066956
v -0.404508 0.527495 0.226937
v -0.154509 0.527495 0.408573
v 0.154509 0.527495 0.408573
v 0.404508 0.527495 0.226937
v 0.500000 0.527495 -0.066956
v 0.404509 1.011169 -0.360848
v 0.154508 1.011169 -0.542484
v -0.154509 1.011169 -0.542484
v -0.404509 1.011169 -0.360848
v -0.500000 1.011169 -0.066956
v -0.404509 1.011169 0.226937
v -0.154508 1.011169 0.408573
v 0.154509 1.011169 0.408573
v 0.404509 1.011169 0.226937
v 0.500000 1.011169 -0.066956
v 0.125140 1.267178 -0.163344
v 0.047799 1.267178 -0.222916
v -0.047799 1.267178 -0.222916
v -0.125140 1.267178 -0.163344
v -0.154682 1.267178 -0.066956
v -0.125140 1.267178 0.029433
v -0.047799 1.267178 0.089005
v 0.047799 1.267178 0.089005
v 0.125140 1.267178 0.029433
v 0.154682 1.267178 -0.066956
v 0.165591 1.346746 -0.199265
v 0.063250 1.346746 -0.281036
v -0.063250 1.346746 -0.281036
v -0.165591 1.346746 -0.199265
v -0.204682 1.346746 -0.066956
v -0.165591 1.346746 0.065353
v -0.063250 1.346746 0.147125
v 0.063250 1.346746 0.147125
v 0.165591 1.346746 0.065353
v 0.204682 1.346746 -0.066956
v 0.000000 -1.708628 -0.066956
vt 0.375000 0.312500
vt 0.400000 0.312500
vt 0.400000 0.350094
vt 0.375000 0.350094
vt 0.425000 0.312500
vt 0.425000 0.350094
vt 0.450000 0.312500
vt 0.450000 0.350094
vt 0.475000 0.312500
vt 0.475000 0.350094
vt 0.500000 0.312500
vt 0.500000 0.350094
vt 0.525000 0.312500
vt 0.525000 0.350094
vt 0.550000 0.312500
vt 0.550000 0.350094
vt 0.575000 0.312500
vt 0.575000 0.350094
vt 0.600000 0.312500
vt 0.600000 0.350094
vt 0.625000 0.312500
vt 0.625000 0.350094
vt 0.400000 0.387688
vt 0.375000 0.387688
vt 0.425000 0.387688
vt 0.450000 0.387688
vt 0.475000 0.387688
vt 0.500000 0.387688
vt 0.525000 0.387688
vt 0.550000 0.387688
vt 0.575000 0.387688
vt 0.600000 0.387688
vt 0.625000 0.387688
vt 0.400000 0.425282
vt 0.375000 0.425282
vt 0.425000 0.425282
vt 0.450000 0.425282
vt 0.475000 0.425282
vt 0.500000 0.425282
vt 0.525000 0.425282
vt 0.550000 0.425282
vt 0.575000 0.425282
vt 0.600000 0.425282
vt 0.625000 0.425282
vt 0.400000 0.462876
vt 0.375000 0.462876
vt 0.425000 0.462876
vt 0.450000 0.462876
vt 0.475000 0.462876
vt 0.500000 0.462876
vt 0.525000 0.462876
vt 0.550000 0.462876
vt 0.575000 0.462876
vt 0.600000 0.462876
vt 0.625000 0.462876
vt 0.400000 0.500470
vt 0.375000 0.500470
vt 0.425000 0.500470
vt 0.450000 0.500470
vt 0.475000 0.500470
vt 0.500000 0.500470
vt 0.525000 0.500470
vt 0.550000 0.500470
vt 0.575000 0.500470
vt 0.600000 0.500470
vt 0.625000 0.500470
vt 0.400000 0.538064
vt 0.375000 0.538064
vt 0.425000 0.538064
vt 0.450000 0.538064
vt 0.475000 0.538064
vt 0.500000 0.538064
vt 0.525000 0.538064
vt 0.550000 0.538064
vt 0.575000 0.538064
vt 0.600000 0.538064
vt 0.625000 0.538064
vt 0.400000 0.575658
vt 0.375000 0.575658
vt 0.425000 0.575658
vt 0.450000 0.575658
vt 0.475000 0.575658
vt 0.500000 0.575658
vt 0.525000 0.575658
vt 0.550000 0.575658
vt 0.575000 0.575658
vt 0.600000 0.575658
vt 0.625000 0.575658
vt 0.400000 0.613252
vt 0.375000 0.613252
vt 0.425000 0.613252
vt 0.450000 0.613252
vt 0.475000 0.613252
vt 0.500000 0.613252
vt 0.525000 0.613252
vt 0.550000 0.613252
vt 0.575000 0.613252
vt 0.600000 0.613252
vt 0.625000 0.613252
vt 0.400000 0.650846
vt 0.375000 0.650846
vt 0.425000 0.650846
vt 0.450000 0.650846
vt 0.475000 0.650846
vt 0.500000 0.650846
vt 0.525000 0.650846
vt 0.550000 0.650846
vt 0.575000 0.650846
vt 0.600000 0.650846
vt 0.625000 0.650846
vt 0.548284 0.007647
vt 0.626409 0.064409
vt 0.500000 0.150000
vt 0.451716 0.007647
vt 0.373591 0.064409
vt 0.343750 0.156250
vt 0.373591 0.248091
vt 0.451716 0.304853
vt 0.548284 0.304853
vt 0.626409 0.248091
vt 0.656250 0.156250
vn 0.723624 -0.425819 -0.543181
vn 0.274002 -0.406994 -0.871366
vn 0.304377 0.000095 -0.952552
vn 0.804352 0.000196 -0.594154
vn 0.274002 -0.406994 -0.871366
vn -0.274003 -0.406994 -0.871366
vn -0.304377 0.000095 -0.952552
vn 0.304377 0.000095 -0.952552
vn -0.274003 -0.406994 -0.871366
vn -0.723624 -0.425819 -0.543181
vn -0.804352 0.000196 -0.594153
vn -0.304377 0.000095 -0.952552
vn -0.723624 -0.425819 -0.543181
vn -0.899118 -0.437706 0.000000
vn -1.000000 0.000336 0.000000
vn -0.804352 0.000196 -0.594153
vn -0.899118 -0.437706 0.000000
vn -0.723624 -0.425819 0.543182
vn -0.804352 0.000196 0.594154
vn -1.000000 0.000336 0.000000
vn -0.723624 -0.425819 0.543182
vn -0.274002 -0.406994 0.871366
vn -0.304377 0.000095 0.952552
vn -0.804352 0.000196 0.594154
vn -0.274002 -0.406994 0.871366
vn 0.274003 -0.406994 0.871366
vn 0.304377 0.000095 0.952552
vn -0.304377 0.000095 0.952552
vn 0.274003 -0.406994 0.871366
vn 0.723624 -0.425819 0.543181
vn 0.804352 0.000196 0.594154
vn 0.304377 0.000095 0.952552
vn 0.723624 -0.425819 0.543181
vn 0.899119 -0.437705 0.000000
vn 1.000000 0.000336 0.000000
vn 0.804352 0.000196 0.594154
vn 0.899119 -0.437705 0.000000
vn 0.723624 -0.425819 -0.543181
vn 0.804352 0.000196 -0.594154
vn 1.000000 0.000336 0.000000
vn 0.798152 0.086687 -0.596186
vn 0.300350 0.081058 -0.950379
vn 0.275731 0.404672 -0.871902
vn 0.740234 0.382973 -0.552617
vn 0.300350 0.081058 -0.950379
vn -0.300350 0.081058 -0.950379
vn -0.275731 0.404672 -0.871902
vn 0.275731 0.404672 -0.871902
vn -0.300350 0.081058 -0.950379
vn -0.798152 0.086687 -0.596186
vn -0.740234 0.382973 -0.552617
vn -0.275731 0.404672 -0.871902
vn -0.798152 0.086687 -0.596186
vn -0.995923 0.090205 0.000000
vn -0.929435 0.368987 0.000000
vn -0.740234 0.382973 -0.552617
vn -0.995923 0.090205 0.000000
vn -0.798152 0.086687 0.596187
vn -0.740234 0.382973 0.552617
vn -0.929435 0.368987 0.000000
vn -0.798152 0.086687 0.596187
vn -0.300350 0.081058 0.950379
vn -0.275731 0.404672 0.871902
vn -0.740234 0.382973 0.552617
vn -0.300350 0.081058 0.950379
vn 0.300350 0.081058 0.950379
vn 0.275731 0.404672 0.871902
vn -0.275731 0.404672 0.871902
vn 0.300350 0.081058 0.950379
vn 0.798152 0.086687 0.596186
vn 0.740234 0.382973 0.552617
vn 0.275731 0.404672 0.871902
vn 0.798152 0.086687 0.596186
vn 0.995923 0.090205 0.000000
vn 0.929435 0.368987 0.000000
vn 0.740234 0.382973 0.552617
vn 0.995923 0.090205 0.000000
vn 0.798152 0.086687 -0.596186
vn 0.740234 0.382973 -0.552617
vn 0.929435 0.368987 0.000000
vn 0.740234 0.382973 -0.552617
vn 0.275731 0.404672 -0.871902
vn 0.291518 0.172195 -0.940939
vn 0.784461 0.165906 -0.597576
vn 0.275731 0.404672 -0.871902
vn -0.275731 0.404672 -0.871902
vn -0.291518 0.172195 -0.940939
vn 0.291518 0.172195 -0.940939
vn -0.275731 0.404672 -0.871902
vn -0.740234 0.382973 -0.552617
vn -0.784461 0.165906 -0.597576
vn -0.291518 0.172195 -0.940939
vn -0.740234 0.382973 -0.552617
vn -0.929435 0.368987 0.000000
vn -0.986802 0.161935 0.000000
vn -0.784461 0.165906 -0.597576
vn -0.929435 0.368987 0.000000
vn -0.740234 0.382973 0.552617
vn -0.784460 0.165906 0.597576
vn -0.986802 0.161935 0.000000
vn -0.740234 0.382973 0.552617
vn -0.275731 0.404672 0.871902
vn -0.291518 0.172195 0.940939
vn -0.784460 0.165906 0.597576
vn -0.275731 0.404672 0.871902
vn 0.275731 0.404672 0.871902
vn 0.291518 0.172195 0.940939
vn -0.291518 0.172195 0.940939
vn 0.275731 0.404672 0.871902
vn 0.740234 0.382973 0.552617
vn 0.784460 0.165906 0.597576
vn 0.291518 0.172195 0.940939
vn 0.740234 0.382973 0.552617
vn 0.929435 0.368987 0.000000
vn 0.986802 0.161935 0.000000
vn 0.784460 0.165906 0.597576
vn 0.929435 0.368987 0.000000
vn 0.740234 0.382973 -0.552617
vn 0.784461 0.165906 -0.597576
vn 0.986802 0.161935 0.000000
vn 0.784461 0.165906 -0.597576
vn 0.291518 0.172195 -0.940939
vn 0.263681 -0.479124 -0.837205
vn 0.711560 -0.457528 -0.533245
vn 0.291518 0.172195 -0.940939
vn -0.291518 0.172195 -0.940939
vn -0.263681 -0.479124 -0.837205
vn 0.263681 -0.479124 -0.837205
vn -0.291518 0.172195 -0.940939
vn -0.784461 0.165906 -0.597576
vn -0.711561 -0.457528 -0.533244
vn -0.263681 -0.479124 -0.837205
vn -0.784461 0.165906 -0.597576
vn -0.986802 0.161935 0.000000
vn -0.896223 -0.443605 0.000000
vn -0.711561 -0.457528 -0.533244
vn -0.986802 0.161935 0.000000
vn -0.784460 0.165906 0.597576
vn -0.711560 -0.457528 0.533245
vn -0.896223 -0.443605 0.000000
vn -0.784460 0.165906 0.597576
vn -0.291518 0.172195 0.940939
vn -0.263681 -0.479124 0.837205
vn -0.711560 -0.457528 0.533245
vn -0.291518 0.172195 0.940939
vn 0.291518 0.172195 0.940939
vn 0.263681 -0.479124 0.837205
vn -0.263681 -0.479124 0.837205
vn 0.291518 0.172195 0.940939
vn 0.784460 0.165906 0.597576
vn 0.711560 -0.457528 0.533245
vn 0.263681 -0.479124 0.837205
vn 0.784460 0.165906 0.597576
vn 0.986802 0.161935 0.000000
vn 0.896222 -0.443605 0.000000
vn 0.711560 -0.457528 0.533245
vn 0.986802 0.161935 0.000000
vn 0.784461 0.165906 -0.597576
vn 0.711560 -0.457528 -0.533245
vn 0.896222 -0.443605 0.000000
vn 0.711560 -0.457528 -0.533245
vn 0.263681 -0.479124 -0.837205
vn 0.302194 -0.168174 -0.938294
vn 0.796346 -0.158182 -0.583791
vn 0.263681 -0.479124 -0.837205
vn -0.263681 -0.479124 -0.837205
vn -0.302194 -0.168174 -0.938294
vn 0.302194 -0.168174 -0.938294
vn -0.263681 -0.479124 -0.837205
vn -0.711561 -0.457528 -0.533244
vn -0.796346 -0.158182 -0.583791
vn -0.302194 -0.168174 -0.938294
vn -0.711561 -0.457528 -0.533244
vn -0.896223 -0.443605 0.000000
vn -0.988432 -0.151664 0.000000
vn -0.796346 -0.158182 -0.583791
vn -0.896223 -0.443605 0.000000
vn -0.711560 -0.457528 0.533245
vn -0.796345 -0.158182 0.583792
vn -0.988432 -0.151664 0.000000
vn -0.711560 -0.457528 0.533245
vn -0.263681 -0.479124 0.837205
vn -0.302194 -0.168174 0.938294
vn -0.796345 -0.158182 0.583792
vn -0.263681 -0.479124 0.837205
vn 0.263681 -0.479124 0.837205
vn 0.302194 -0.168174 0.938294
vn -0.302194 -0.168174 0.938294
vn 0.263681 -0.479124 0.837205
vn 0.711560 -0.457528 0.533245
vn 0.796345 -0.158182 0.583791
vn 0.302194 -0.168174 0.938294
vn 0.711560 -0.457528 0.533245
vn 0.896222 -0.443605 0.000000
vn 0.988432 -0.151664 0.000000
vn 0.796345 -0.158182 0.583791
vn 0.896222 -0.443605 0.000000
vn 0.711560 -0.457528 -0.533245
vn 0.796346 -0.158182 -0.583791
vn 0.988432 -0.151664 0.000000
vn 0.796346 -0.158182 -0.583791
vn 0.302194 -0.168174 -0.938294
vn 0.297293 0.286002 -0.910945
vn 0.775351 0.290294 -0.560857
vn 0.302194 -0.168174 -0.938294
vn -0.302194 -0.168174 -0.938294
vn -0.297293 0.286002 -0.910944
vn 0.297293 0.286002 -0.910945
vn -0.302194 -0.168174 -0.938294
vn -0.796346 -0.158182 -0.583791
vn -0.775351 0.290294 -0.560857
vn -0.297293 0.286002 -0.910944
vn -0.796346 -0.158182 -0.583791
vn -0.988432 -0.151664 0.000000
vn -0.956143 0.292899 0.000000
vn -0.775351 0.290294 -0.560857
vn -0.988432 -0.151664 0.000000
vn -0.796345 -0.158182 0.583792
vn -0.775351 0.290294 0.560857
vn -0.956143 0.292899 0.000000
vn -0.796345 -0.158182 0.583792
vn -0.302194 -0.168174 0.938294
vn -0.297293 0.286002 0.910945
vn -0.775351 0.290294 0.560857
vn -0.302194 -0.168174 0.938294
vn 0.302194 -0.168174 0.938294
vn 0.297293 0.286002 0.910944
vn -0.297293 0.286002 0.910945
vn 0.302194 -0.168174 0.938294
vn 0.796345 -0.158182 0.583791
vn 0.775351 0.290294 0.560857
vn 0.297293 0.286002 0.910944
vn 0.796345 -0.158182 0.583791
vn 0.988432 -0.151664 0.000000
vn 0.956143 0.292899 0.000000
vn 0.775351 0.290294 0.560857
vn 0.988432 -0.151664 0.000000
vn 0.796346 -0.158182 -0.583791
vn 0.775351 0.290294 -0.560857
vn 0.956143 0.292899 0.000000
vn 0.775351 0.290294 -0.560857
vn 0.297293 0.286002 -0.910945
vn 0.221482 0.716279 -0.661733
vn 0.566025 0.721269 -0.399234
vn 0.297293 0.286002 -0.910945
vn -0.297293 0.286002 -0.910944
vn -0.221482 0.716279 -0.661733
vn 0.221482 0.716279 -0.661733
vn -0.297293 0.286002 -0.910944
vn -0.775351 0.290294 -0.560857
vn -0.566025 0.721268 -0.399234
vn -0.221482 0.716279 -0.661733
vn -0.775351 0.290294 -0.560857
vn -0.956143 0.292899 0.000000
vn -0.689565 0.724223 -0.000000
vn -0.566025 0.721268 -0.399234
vn -0.956143 0.292899 0.000000
vn -0.775351 0.290294 0.560857
vn -0.566025 0.721268 0.399234
vn -0.689565 0.724223 -0.000000
vn -0.775351 0.290294 0.560857
vn -0.297293 0.286002 0.910945
vn -0.221482 0.716279 0.661733
vn -0.566025 0.721268 0.399234
vn -0.297293 0.286002 0.910945
vn 0.297293 0.286002 0.910944
vn 0.221482 0.716279 0.661733
vn -0.221482 0.716279 0.661733
vn 0.297293 0.286002 0.910944
vn 0.775351 0.290294 0.560857
vn 0.566025 0.721268 0.399234
vn 0.221482 0.716279 0.661733
vn 0.775351 0.290294 0.560857
vn 0.956143 0.292899 0.000000
vn 0.689565 0.724223 0.000000
vn 0.566025 0.721268 0.399234
vn 0.956143 0.292899 0.000000
vn 0.775351 0.290294 -0.560857
vn 0.566025 0.721269 -0.399234
vn 0.689565 0.724223 0.000000
vn 0.566025 0.721269 -0.399234
vn 0.221482 0.716279 -0.661733
vn 0.316388 -0.128478 -0.939889
vn 0.810122 -0.147061 -0.567517
vn 0.221482 0.716279 -0.661733
vn -0.221482 0.716279 -0.661733
vn -0.316388 -0.128478 -0.939889
vn 0.316388 -0.128478 -0.939889
vn -0.221482 0.716279 -0.661733
vn -0.566025 0.721268 -0.399234
vn -0.810122 -0.147061 -0.567517
vn -0.316388 -0.128478 -0.939889
vn -0.566025 0.721268 -0.399234
vn -0.689565 0.724223 -0.000000
vn -0.987458 -0.157884 0.000000
vn -0.810122 -0.147061 -0.567517
vn -0.689565 0.724223 -0.000000
vn -0.566025 0.721268 0.399234
vn -0.810122 -0.147061 0.567517
vn -0.987458 -0.157884 0.000000
vn -0.566025 0.721268 0.399234
vn -0.221482 0.716279 0.661733
vn -0.316388 -0.128478 0.939889
vn -0.810122 -0.147061 0.567517
vn -0.221482 0.716279 0.661733
vn 0.221482 0.716279 0.661733
vn 0.316388 -0.128478 0.939889
vn -0.316388 -0.128478 0.939889
vn 0.221482 0.716279 0.661733
vn 0.566025 0.721268 0.399234
vn 0.810122 -0.147061 0.567517
vn 0.316388 -0.128478 0.939889
vn 0.566025 0.721268 0.399234
vn 0.689565 0.724223 0.000000
vn 0.987458 -0.157884 0.000000
vn 0.810122 -0.147061 0.567517
vn 0.689565 0.724223 0.000000
vn 0.566025 0.721269 -0.399234
vn 0.810122 -0.147061 -0.567517
vn 0.987458 -0.157884 0.000000
vn 0.274002 -0.406994 -0.871366
vn 0.723624 -0.425819 -0.543181
vn 0.000000 -1.000000 0.000000
vn -0.274003 -0.406994 -0.871366
vn 0.274002 -0.406994 -0.871366
vn 0.000000 -1.000000 0.000000
vn -0.723624 -0.425819 -0.543181
vn -0.274003 -0.406994 -0.871366
vn 0.000000 -1.000000 0.000000
vn -0.899118 -0.437706 0.000000
vn -0.723624 -0.425819 -0.543181
vn 0.000000 -1.000000 0.000000
vn -0.723624 -0.425819 0.543182
vn -0.899118 -0.437706 0.000000
vn 0.000000 -1.000000 0.000000
vn -0.274002 -0.406994 0.871366
vn -0.723624 -0.425819 0.543182
vn 0.000000 -1.000000 0.000000
vn 0.274003 -0.406994 0.871366
vn -0.274002 -0.406994 0.871366
vn 0.000000 -1.000000 0.000000
vn 0.723624 -0.425819 0.543181
vn 0.274003 -0.406994 0.871366
vn 0.000000 -1.000000 0.000000
vn 0.899119 -0.437705 0.000000
vn 0.723624 -0.425819 0.543181
vn 0.000000 -1.000000 0.000000
vn 0.723624 -0.425819 -0.543181
vn 0.899119 -0.437705 0.000000
vn 0.000000 -1.000000 0.000000
s off
g produtos1:pCylinder1 polySurface2 tampa
usemtl produtos1:initialShadingGroup
f 42/56/111 43/57/112 53/58/113 52/59/114
f 43/57/115 44/60/116 54/61/117 53/58/118
f 44/60/119 45/62/120 55/63/121 54/61/122
f 45/62/123 46/64/124 56/65/125 55/63/126
f 46/64/127 47/66/128 57/67/129 56/65/130
f 47/66/131 48/68/132 58/69/133 57/67/134
f 48/68/135 49/70/136 59/71/137 58/69/138
f 49/70/139 50/72/140 60/73/141 59/71/142
f 50/72/143 51/74/144 61/75/145 60/73/146
f 51/74/147 42/76/148 52/77/149 61/75/150
f 62/79/151 63/78/152 73/89/153 72/90/154
f 63/78/155 64/80/156 74/91/157 73/89/158
f 64/80/159 65/81/160 75/92/161 74/91/162
f 65/81/163 66/82/164 76/93/165 75/92/166
f 66/82/167 67/83/168 77/94/169 76/93/170
f 67/83/171 68/84/172 78/95/173 77/94/174
f 68/84/175 69/85/176 79/96/177 78/95/178
f 69/85/179 70/86/180 80/97/181 79/96/182
f 70/86/183 71/87/184 81/98/185 80/97/186
f 71/87/187 62/88/188 72/99/189 81/98/190
f 72/90/191 73/89/192 83/100/193 82/101/194
f 73/89/195 74/91/196 84/102/197 83/100/198
f 74/91/199 75/92/200 85/103/201 84/102/202
f 75/92/203 76/93/204 86/104/205 85/103/206
f 76/93/207 77/94/208 87/105/209 86/104/210
f 77/94/211 78/95/212 88/106/213 87/105/214
f 78/95/215 79/96/216 89/107/217 88/106/218
f 79/96/219 80/97/220 90/108/221 89/107/222
f 80/97/223 81/98/224 91/109/225 90/108/226
f 81/98/227 72/99/228 82/110/229 91/109/230
f 82/101/231 83/100/232 93/111/233 92/112/234
f 83/100/235 84/102/236 94/113/237 93/111/238
f 84/102/239 85/103/240 95/114/241 94/113/242
f 85/103/243 86/104/244 96/115/245 95/114/246
f 86/104/247 87/105/248 97/116/249 96/115/250
f 87/105/251 88/106/252 98/117/253 97/116/254
f 88/106/255 89/107/256 99/118/257 98/117/258
f 89/107/259 90/108/260 100/119/261 99/118/262
f 90/108/263 91/109/264 101/120/265 100/119/266
f 91/109/267 82/110/268 92/121/269 101/120/270
f 92/112/271 93/111/272 103/122/273 102/123/274
f 93/111/275 94/113/276 104/124/277 103/122/278
f 94/113/279 95/114/280 105/125/281 104/124/282
f 95/114/283 96/115/284 106/126/285 105/125/286
f 96/115/287 97/116/288 107/127/289 106/126/290
f 97/116/291 98/117/292 108/128/293 107/127/294
f 98/117/295 99/118/296 109/129/297 108/128/298
f 99/118/299 100/119/300 110/130/301 109/129/302
f 100/119/303 101/120/304 111/131/305 110/130/306
f 101/120/307 92/121/308 102/132/309 111/131/310
f 102/123/311 103/122/312 113/133/313 112/134/314
f 103/122/315 104/124/316 114/135/317 113/133/318
f 104/124/319 105/125/320 115/136/321 114/135/322
f 105/125/323 106/126/324 116/137/325 115/136/326
f 106/126/327 107/127/328 117/138/329 116/137/330
f 107/127/331 108/128/332 118/139/333 117/138/334
f 108/128/335 109/129/336 119/140/337 118/139/338
f 109/129/339 110/130/340 120/141/341 119/140/342
f 110/130/343 111/131/344 121/142/345 120/141/346
f 111/131/347 102/132/348 112/143/349 121/142/350
f 112/134/351 113/133/352 123/144/353 122/145/354
f 113/133/355 114/135/356 124/146/357 123/144/358
f 114/135/359 115/136/360 125/147/361 124/146/362
f 115/136/363 116/137/364 126/148/365 125/147/366
f 116/137/367 117/138/368 127/149/369 126/148/370
f 117/138/371 118/139/372 128/150/373 127/149/374
f 118/139/375 119/140/376 129/151/377 128/150/378
f 119/140/379 120/141/380 130/152/381 129/151/382
f 120/141/383 121/142/384 131/153/385 130/152/386
f 121/142/387 112/143/388 122/154/389 131/153/390
f 122/145/391 123/144/392 133/155/393 132/156/394
f 123/144/395 124/146/396 134/157/397 133/155/398
f 124/146/399 125/147/400 135/158/401 134/157/402
f 125/147/403 126/148/404 136/159/405 135/158/406
f 126/148/407 127/149/408 137/160/409 136/159/410
f 127/149/411 128/150/412 138/161/413 137/160/414
f 128/150/415 129/151/416 139/162/417 138/161/418
f 129/151/419 130/152/420 140/163/421 139/162/422
f 130/152/423 131/153/424 141/164/425 140/163/426
f 131/153/427 122/154/428 132/165/429 141/164/430
f 43/166/431 42/167/432 142/168/433
f 44/169/434 43/166/435 142/168/436
f 45/170/437 44/169/438 142/168/439
f 46/171/440 45/170/441 142/168/442
f 47/172/443 46/171/444 142/168/445
f 48/173/446 47/172/447 142/168/448
f 49/174/449 48/173/450 142/168/451
f 50/175/452 49/174/453 142/168/454
f 51/176/455 50/175/456 142/168/457
f 42/167/458 51/176/459 142/168/460
